0000.000 (0) Opened log file at time: Sat, 06 Apr 2019 18:52:22 +0000 on http://global.joyoung.com
0000.004 (0) UpdraftPlus WordPress backup plugin (https://updraftplus.com): 1.12.20 WP: 4.6.1 PHP: 5.4.45 (Linux globalvps.joyoung.com 2.6.32-573.22.1.el6.x86_64 #1 SMP Wed Mar 23 03:35:39 UTC 2016 x86_64) MySQL: 5.6.70 WPLANG: zh_TW Server: Apache/2.2.15 (CentOS) safe_mode: 0 max_execution_time: 900 memory_limit: 256M (used: 76.2M | 78M) multisite: N openssl: OpenSSL 1.0.1e-fips 11 Feb 2013 mcrypt: Y LANG: C ZipArchive::addFile: Y
0000.006 (0) Free space on disk containing Updraft's temporary directory: 24719.4 MB
0000.009 (0) Tasks: Backup files:  (schedule: weekly) Backup DB: 1 (schedule: daily)
0000.011 (0) Processed schedules. Tasks now: Backup files:  Backup DB: 1
0000.015 (0) Requesting semaphore lock (d) (apparently via scheduler: last_scheduled_action_called_at=1554490346, seconds_ago=86396)
0000.019 (0) Set semaphore last lock (d) time to 2019-04-06 18:52:22
0000.020 (0) Semaphore lock (d) complete
0000.027 (0) Backup run: resumption=0, nonce=e4d7ef025a6a, begun at=1554576742 (0s ago), job type=backup
0000.030 (0) Scheduling a resumption (1) after 300 seconds (1554577042) in case this run gets aborted
0000.042 (0) This backup run is not intended for files - skipping
0000.044 (0) Beginning creation of database dump (WordPress DB)
0000.049 (0) Testing: /usr/bin/mysqldump
0000.112 (0) Working binary mysqldump found: /usr/bin/mysqldump
0000.126 (0) Table wp_pekw_options: Total expected rows (approximate): 13294
0000.271 (0) Table wp_pekw_options: binary mysqldump finished (writes: 33) in 0.14 seconds
0000.274 (0) Table wp_pekw_options: finishing file (backup_2019-04-07-0252_Joyoung__e4d7ef025a6a-db-table-wp_pekw_options.table.gz - 400.7 KB)
0000.283 (0) Table wp_pekw_users: Total expected rows (approximate): 280
0000.302 (0) Table wp_pekw_users: Total rows added: 280 in 0.02 seconds
0000.305 (0) Table wp_pekw_users: finishing file (backup_2019-04-07-0252_Joyoung__e4d7ef025a6a-db-table-wp_pekw_users.table.gz - 17.7 KB)
0000.316 (0) Table wp_pekw_usermeta: Total expected rows (approximate): 4297
0000.408 (0) Table wp_pekw_usermeta: Total rows added: 4193 in 0.09 seconds
0000.411 (0) Table wp_pekw_usermeta: finishing file (backup_2019-04-07-0252_Joyoung__e4d7ef025a6a-db-table-wp_pekw_usermeta.table.gz - 63.3 KB)
0000.419 (0) Table wp_pekw_commentmeta: Total expected rows (approximate): 124
0000.427 (0) Table wp_pekw_commentmeta: Total rows added: 124 in 0.00 seconds
0000.430 (0) Table wp_pekw_commentmeta: finishing file (backup_2019-04-07-0252_Joyoung__e4d7ef025a6a-db-table-wp_pekw_commentmeta.table.gz - 2.1 KB)
0000.437 (0) Table wp_pekw_comments: Total expected rows (approximate): 38
0000.447 (0) Table wp_pekw_comments: Total rows added: 38 in 0.01 seconds
0000.450 (0) Table wp_pekw_comments: finishing file (backup_2019-04-07-0252_Joyoung__e4d7ef025a6a-db-table-wp_pekw_comments.table.gz - 10.1 KB)
0000.459 (0) Table wp_pekw_links: Total expected rows (approximate): 0
0000.466 (0) Table wp_pekw_links: Total rows added: 0 in 0.01 seconds
0000.469 (0) Table wp_pekw_links: finishing file (backup_2019-04-07-0252_Joyoung__e4d7ef025a6a-db-table-wp_pekw_links.table.gz - 0.5 KB)
0000.482 (0) Table wp_pekw_postmeta: Total expected rows (approximate): 69052
0000.762 (0) Table wp_pekw_postmeta: binary mysqldump finished (writes: 36) in 0.28 seconds
0000.765 (0) Table wp_pekw_postmeta: finishing file (backup_2019-04-07-0252_Joyoung__e4d7ef025a6a-db-table-wp_pekw_postmeta.table.gz - 452 KB)
0000.774 (0) Table wp_pekw_posts: Total expected rows (approximate): 10438
0001.331 (0) Table wp_pekw_posts: binary mysqldump finished (writes: 68) in 0.55 seconds
0001.334 (0) Table wp_pekw_posts: finishing file (backup_2019-04-07-0252_Joyoung__e4d7ef025a6a-db-table-wp_pekw_posts.table.gz - 1274.6 KB)
0001.341 (0) Table wp_pekw_term_relationships: Total expected rows (approximate): 422
0001.350 (0) Table wp_pekw_term_relationships: Total rows added: 422 in 0.01 seconds
0001.352 (0) Table wp_pekw_term_relationships: finishing file (backup_2019-04-07-0252_Joyoung__e4d7ef025a6a-db-table-wp_pekw_term_relationships.table.gz - 1.7 KB)
0001.359 (0) Table wp_pekw_term_taxonomy: Total expected rows (approximate): 56
0001.364 (0) Table wp_pekw_term_taxonomy: Total rows added: 56 in 0.00 seconds
0001.366 (0) Table wp_pekw_term_taxonomy: finishing file (backup_2019-04-07-0252_Joyoung__e4d7ef025a6a-db-table-wp_pekw_term_taxonomy.table.gz - 0.9 KB)
0001.373 (0) Table wp_pekw_termmeta: Total expected rows (approximate): 50
0001.379 (0) Table wp_pekw_termmeta: Total rows added: 50 in 0.00 seconds
0001.381 (0) Table wp_pekw_termmeta: finishing file (backup_2019-04-07-0252_Joyoung__e4d7ef025a6a-db-table-wp_pekw_termmeta.table.gz - 0.8 KB)
0001.387 (0) Table wp_pekw_terms: Total expected rows (approximate): 56
0001.392 (0) Table wp_pekw_terms: Total rows added: 56 in 0.00 seconds
0001.394 (0) Table wp_pekw_terms: finishing file (backup_2019-04-07-0252_Joyoung__e4d7ef025a6a-db-table-wp_pekw_terms.table.gz - 1.5 KB)
0001.400 (0) Table wp_pekw_woocommerce_order_itemmeta: Total expected rows (approximate): 9
0001.404 (0) Table wp_pekw_woocommerce_order_itemmeta: Total rows added: 9 in 0.00 seconds
0001.406 (0) Table wp_pekw_woocommerce_order_itemmeta: finishing file (backup_2019-04-07-0252_Joyoung__e4d7ef025a6a-db-table-wp_pekw_woocommerce_order_itemmeta.table.gz - 0.5 KB)
0001.412 (0) Table wp_pekw_woocommerce_payment_tokenmeta: Total expected rows (approximate): 0
0001.416 (0) Table wp_pekw_woocommerce_payment_tokenmeta: Total rows added: 0 in 0.00 seconds
0001.417 (0) Table wp_pekw_woocommerce_payment_tokenmeta: finishing file (backup_2019-04-07-0252_Joyoung__e4d7ef025a6a-db-table-wp_pekw_woocommerce_payment_tokenmeta.table.gz - 0.4 KB)
0001.424 (0) Table wp_pekw_ahm_download_stats: Total expected rows (approximate): 66198
0001.689 (0) Table wp_pekw_ahm_download_stats: binary mysqldump finished (writes: 38) in 0.26 seconds
0001.692 (0) Table wp_pekw_ahm_download_stats: finishing file (backup_2019-04-07-0252_Joyoung__e4d7ef025a6a-db-table-wp_pekw_ahm_download_stats.table.gz - 600.6 KB)
0001.698 (0) Table wp_pekw_ahm_emails: Total expected rows (approximate): 0
0001.701 (0) Table wp_pekw_ahm_emails: Total rows added: 0 in 0.00 seconds
0001.703 (0) Table wp_pekw_ahm_emails: finishing file (backup_2019-04-07-0252_Joyoung__e4d7ef025a6a-db-table-wp_pekw_ahm_emails.table.gz - 0.3 KB)
0001.709 (0) Table wp_pekw_aiowps_events: Total expected rows (approximate): 0
0001.713 (0) Table wp_pekw_aiowps_events: Total rows added: 0 in 0.00 seconds
0001.715 (0) Table wp_pekw_aiowps_events: finishing file (backup_2019-04-07-0252_Joyoung__e4d7ef025a6a-db-table-wp_pekw_aiowps_events.table.gz - 0.4 KB)
0001.721 (0) Table wp_pekw_aiowps_failed_logins: Total expected rows (approximate): 933
0001.754 (0) Table wp_pekw_aiowps_failed_logins: Total rows added: 933 in 0.03 seconds
0001.757 (0) Table wp_pekw_aiowps_failed_logins: finishing file (backup_2019-04-07-0252_Joyoung__e4d7ef025a6a-db-table-wp_pekw_aiowps_failed_logins.table.gz - 11.9 KB)
0001.765 (0) Table wp_pekw_aiowps_global_meta: Total expected rows (approximate): 0
0001.769 (0) Table wp_pekw_aiowps_global_meta: Total rows added: 0 in 0.00 seconds
0001.771 (0) Table wp_pekw_aiowps_global_meta: finishing file (backup_2019-04-07-0252_Joyoung__e4d7ef025a6a-db-table-wp_pekw_aiowps_global_meta.table.gz - 0.4 KB)
0001.777 (0) Table wp_pekw_aiowps_login_activity: Total expected rows (approximate): 371
0001.795 (0) Table wp_pekw_aiowps_login_activity: Total rows added: 371 in 0.02 seconds
0001.797 (0) Table wp_pekw_aiowps_login_activity: finishing file (backup_2019-04-07-0252_Joyoung__e4d7ef025a6a-db-table-wp_pekw_aiowps_login_activity.table.gz - 7.7 KB)
0001.803 (0) Table wp_pekw_aiowps_login_lockdown: Total expected rows (approximate): 673
0001.831 (0) Table wp_pekw_aiowps_login_lockdown: Total rows added: 673 in 0.03 seconds
0001.834 (0) Table wp_pekw_aiowps_login_lockdown: finishing file (backup_2019-04-07-0252_Joyoung__e4d7ef025a6a-db-table-wp_pekw_aiowps_login_lockdown.table.gz - 13.4 KB)
0001.840 (0) Table wp_pekw_aiowps_permanent_block: Total expected rows (approximate): 6
0001.845 (0) Table wp_pekw_aiowps_permanent_block: Total rows added: 6 in 0.00 seconds
0001.847 (0) Table wp_pekw_aiowps_permanent_block: finishing file (backup_2019-04-07-0252_Joyoung__e4d7ef025a6a-db-table-wp_pekw_aiowps_permanent_block.table.gz - 0.5 KB)
0001.853 (0) Table wp_pekw_blc_filters: Total expected rows (approximate): 0
0001.857 (0) Table wp_pekw_blc_filters: Total rows added: 0 in 0.00 seconds
0001.858 (0) Table wp_pekw_blc_filters: finishing file (backup_2019-04-07-0252_Joyoung__e4d7ef025a6a-db-table-wp_pekw_blc_filters.table.gz - 0.3 KB)
0001.864 (0) Table wp_pekw_blc_instances: Total expected rows (approximate): 264
0001.879 (0) Table wp_pekw_blc_instances: Total rows added: 264 in 0.01 seconds
0001.881 (0) Table wp_pekw_blc_instances: finishing file (backup_2019-04-07-0252_Joyoung__e4d7ef025a6a-db-table-wp_pekw_blc_instances.table.gz - 5 KB)
0001.887 (0) Table wp_pekw_blc_links: Total expected rows (approximate): 123
0001.908 (0) Table wp_pekw_blc_links: Total rows added: 123 in 0.02 seconds
0001.910 (0) Table wp_pekw_blc_links: finishing file (backup_2019-04-07-0252_Joyoung__e4d7ef025a6a-db-table-wp_pekw_blc_links.table.gz - 34.1 KB)
0001.917 (0) Table wp_pekw_blc_synch: Total expected rows (approximate): 67
0001.923 (0) Table wp_pekw_blc_synch: Total rows added: 67 in 0.00 seconds
0001.925 (0) Table wp_pekw_blc_synch: finishing file (backup_2019-04-07-0252_Joyoung__e4d7ef025a6a-db-table-wp_pekw_blc_synch.table.gz - 0.9 KB)
0001.931 (0) Table wp_pekw_nf_objectmeta: Total expected rows (approximate): 281
0001.940 (0) Table wp_pekw_nf_objectmeta: Total rows added: 282 in 0.01 seconds
0001.942 (0) Table wp_pekw_nf_objectmeta: finishing file (backup_2019-04-07-0252_Joyoung__e4d7ef025a6a-db-table-wp_pekw_nf_objectmeta.table.gz - 3.8 KB)
0001.948 (0) Table wp_pekw_nf_objects: Total expected rows (approximate): 15
0001.954 (0) Table wp_pekw_nf_objects: Total rows added: 16 in 0.00 seconds
0001.956 (0) Table wp_pekw_nf_objects: finishing file (backup_2019-04-07-0252_Joyoung__e4d7ef025a6a-db-table-wp_pekw_nf_objects.table.gz - 0.4 KB)
0001.962 (0) Table wp_pekw_nf_relationships: Total expected rows (approximate): 12
0001.969 (0) Table wp_pekw_nf_relationships: Total rows added: 12 in 0.01 seconds
0001.971 (0) Table wp_pekw_nf_relationships: finishing file (backup_2019-04-07-0252_Joyoung__e4d7ef025a6a-db-table-wp_pekw_nf_relationships.table.gz - 0.4 KB)
0001.982 (0) Table wp_pekw_ninja_forms_fav_fields: Total expected rows (approximate): 17
0001.990 (0) Table wp_pekw_ninja_forms_fav_fields: Total rows added: 17 in 0.01 seconds
0001.994 (0) Table wp_pekw_ninja_forms_fav_fields: finishing file (backup_2019-04-07-0252_Joyoung__e4d7ef025a6a-db-table-wp_pekw_ninja_forms_fav_fields.table.gz - 2.6 KB)
0002.003 (0) Table wp_pekw_ninja_forms_fields: Total expected rows (approximate): 43
0002.015 (0) Table wp_pekw_ninja_forms_fields: Total rows added: 42 in 0.01 seconds
0002.017 (0) Table wp_pekw_ninja_forms_fields: finishing file (backup_2019-04-07-0252_Joyoung__e4d7ef025a6a-db-table-wp_pekw_ninja_forms_fields.table.gz - 5.9 KB)
0002.024 (0) Table wp_pekw_ninja_forms_uploads: Total expected rows (approximate): 170
0002.034 (0) Table wp_pekw_ninja_forms_uploads: Total rows added: 170 in 0.01 seconds
0002.036 (0) Table wp_pekw_ninja_forms_uploads: finishing file (backup_2019-04-07-0252_Joyoung__e4d7ef025a6a-db-table-wp_pekw_ninja_forms_uploads.table.gz - 7.1 KB)
0002.042 (0) Table wp_pekw_podsrel: Total expected rows (approximate): 0
0002.046 (0) Table wp_pekw_podsrel: Total rows added: 0 in 0.00 seconds
0002.048 (0) Table wp_pekw_podsrel: finishing file (backup_2019-04-07-0252_Joyoung__e4d7ef025a6a-db-table-wp_pekw_podsrel.table.gz - 0.4 KB)
0002.053 (0) Table wp_pekw_revslider_css: Total expected rows (approximate): 189
0002.066 (0) Table wp_pekw_revslider_css: Total rows added: 189 in 0.01 seconds
0002.068 (0) Table wp_pekw_revslider_css: finishing file (backup_2019-04-07-0252_Joyoung__e4d7ef025a6a-db-table-wp_pekw_revslider_css.table.gz - 6.1 KB)
0002.074 (0) Table wp_pekw_revslider_layer_animations: Total expected rows (approximate): 0
0002.077 (0) Table wp_pekw_revslider_layer_animations: Total rows added: 0 in 0.00 seconds
0002.079 (0) Table wp_pekw_revslider_layer_animations: finishing file (backup_2019-04-07-0252_Joyoung__e4d7ef025a6a-db-table-wp_pekw_revslider_layer_animations.table.gz - 0.3 KB)
0002.085 (0) Table wp_pekw_revslider_navigations: Total expected rows (approximate): 0
0002.089 (0) Table wp_pekw_revslider_navigations: Total rows added: 0 in 0.00 seconds
0002.090 (0) Table wp_pekw_revslider_navigations: finishing file (backup_2019-04-07-0252_Joyoung__e4d7ef025a6a-db-table-wp_pekw_revslider_navigations.table.gz - 0.3 KB)
0002.096 (0) Table wp_pekw_revslider_sliders: Total expected rows (approximate): 0
0002.101 (0) Table wp_pekw_revslider_sliders: Total rows added: 1 in 0.00 seconds
0002.103 (0) Table wp_pekw_revslider_sliders: finishing file (backup_2019-04-07-0252_Joyoung__e4d7ef025a6a-db-table-wp_pekw_revslider_sliders.table.gz - 3 KB)
0002.109 (0) Table wp_pekw_revslider_slides: Total expected rows (approximate): 8
0002.115 (0) Table wp_pekw_revslider_slides: Total rows added: 8 in 0.00 seconds
0002.117 (0) Table wp_pekw_revslider_slides: finishing file (backup_2019-04-07-0252_Joyoung__e4d7ef025a6a-db-table-wp_pekw_revslider_slides.table.gz - 2.7 KB)
0002.123 (0) Table wp_pekw_revslider_static_slides: Total expected rows (approximate): 0
0002.127 (0) Table wp_pekw_revslider_static_slides: Total rows added: 0 in 0.00 seconds
0002.129 (0) Table wp_pekw_revslider_static_slides: finishing file (backup_2019-04-07-0252_Joyoung__e4d7ef025a6a-db-table-wp_pekw_revslider_static_slides.table.gz - 0.3 KB)
0002.136 (0) Table wp_pekw_social_users: Total expected rows (approximate): 43
0002.141 (0) Table wp_pekw_social_users: Total rows added: 43 in 0.00 seconds
0002.144 (0) Table wp_pekw_social_users: finishing file (backup_2019-04-07-0252_Joyoung__e4d7ef025a6a-db-table-wp_pekw_social_users.table.gz - 0.9 KB)
0002.151 (0) Table wp_pekw_taxonomymeta: Total expected rows (approximate): 0
0002.154 (0) Table wp_pekw_taxonomymeta: Total rows added: 0 in 0.00 seconds
0002.157 (0) Table wp_pekw_taxonomymeta: finishing file (backup_2019-04-07-0252_Joyoung__e4d7ef025a6a-db-table-wp_pekw_taxonomymeta.table.gz - 0.4 KB)
0002.163 (0) Table wp_pekw_woocommerce_api_keys: Total expected rows (approximate): 0
0002.168 (0) Table wp_pekw_woocommerce_api_keys: Total rows added: 0 in 0.00 seconds
0002.170 (0) Table wp_pekw_woocommerce_api_keys: finishing file (backup_2019-04-07-0252_Joyoung__e4d7ef025a6a-db-table-wp_pekw_woocommerce_api_keys.table.gz - 0.4 KB)
0002.176 (0) Table wp_pekw_woocommerce_attribute_taxonomies: Total expected rows (approximate): 0
0002.181 (0) Table wp_pekw_woocommerce_attribute_taxonomies: Total rows added: 0 in 0.00 seconds
0002.183 (0) Table wp_pekw_woocommerce_attribute_taxonomies: finishing file (backup_2019-04-07-0252_Joyoung__e4d7ef025a6a-db-table-wp_pekw_woocommerce_attribute_taxonomies.table.gz - 0.4 KB)
0002.196 (0) Table wp_pekw_woocommerce_downloadable_product_permissions: Total expected rows (approximate): 0
0002.200 (0) Table wp_pekw_woocommerce_downloadable_product_permissions: Total rows added: 0 in 0.00 seconds
0002.202 (0) Table wp_pekw_woocommerce_downloadable_product_permissions: finishing file (backup_2019-04-07-0252_Joyoung__e4d7ef025a6a-db-table-wp_pekw_woocommerce_downloadable_product_permissions.table.gz - 0.5 KB)
0002.209 (0) Table wp_pekw_woocommerce_order_items: Total expected rows (approximate): 2
0002.218 (0) Table wp_pekw_woocommerce_order_items: Total rows added: 1 in 0.01 seconds
0002.219 (0) Table wp_pekw_woocommerce_order_items: finishing file (backup_2019-04-07-0252_Joyoung__e4d7ef025a6a-db-table-wp_pekw_woocommerce_order_items.table.gz - 0.4 KB)
0002.226 (0) Table wp_pekw_woocommerce_payment_tokens: Total expected rows (approximate): 0
0002.229 (0) Table wp_pekw_woocommerce_payment_tokens: Total rows added: 0 in 0.00 seconds
0002.231 (0) Table wp_pekw_woocommerce_payment_tokens: finishing file (backup_2019-04-07-0252_Joyoung__e4d7ef025a6a-db-table-wp_pekw_woocommerce_payment_tokens.table.gz - 0.4 KB)
0002.238 (0) Table wp_pekw_woocommerce_sessions: Total expected rows (approximate): 0
0002.243 (0) Table wp_pekw_woocommerce_sessions: Total rows added: 0 in 0.00 seconds
0002.245 (0) Table wp_pekw_woocommerce_sessions: finishing file (backup_2019-04-07-0252_Joyoung__e4d7ef025a6a-db-table-wp_pekw_woocommerce_sessions.table.gz - 0.4 KB)
0002.251 (0) Table wp_pekw_woocommerce_shipping_zone_locations: Total expected rows (approximate): 0
0002.261 (0) Table wp_pekw_woocommerce_shipping_zone_locations: Total rows added: 0 in 0.01 seconds
0002.262 (0) Table wp_pekw_woocommerce_shipping_zone_locations: finishing file (backup_2019-04-07-0252_Joyoung__e4d7ef025a6a-db-table-wp_pekw_woocommerce_shipping_zone_locations.table.gz - 0.4 KB)
0002.269 (0) Table wp_pekw_woocommerce_shipping_zone_methods: Total expected rows (approximate): 0
0002.275 (0) Table wp_pekw_woocommerce_shipping_zone_methods: Total rows added: 0 in 0.00 seconds
0002.278 (0) Table wp_pekw_woocommerce_shipping_zone_methods: finishing file (backup_2019-04-07-0252_Joyoung__e4d7ef025a6a-db-table-wp_pekw_woocommerce_shipping_zone_methods.table.gz - 0.4 KB)
0002.286 (0) Table wp_pekw_woocommerce_shipping_zones: Total expected rows (approximate): 0
0002.291 (0) Table wp_pekw_woocommerce_shipping_zones: Total rows added: 0 in 0.00 seconds
0002.293 (0) Table wp_pekw_woocommerce_shipping_zones: finishing file (backup_2019-04-07-0252_Joyoung__e4d7ef025a6a-db-table-wp_pekw_woocommerce_shipping_zones.table.gz - 0.3 KB)
0002.300 (0) Table wp_pekw_woocommerce_tax_rate_locations: Total expected rows (approximate): 0
0002.304 (0) Table wp_pekw_woocommerce_tax_rate_locations: Total rows added: 0 in 0.00 seconds
0002.306 (0) Table wp_pekw_woocommerce_tax_rate_locations: finishing file (backup_2019-04-07-0252_Joyoung__e4d7ef025a6a-db-table-wp_pekw_woocommerce_tax_rate_locations.table.gz - 0.4 KB)
0002.313 (0) Table wp_pekw_woocommerce_tax_rates: Total expected rows (approximate): 0
0002.320 (0) Table wp_pekw_woocommerce_tax_rates: Total rows added: 0 in 0.00 seconds
0002.322 (0) Table wp_pekw_woocommerce_tax_rates: finishing file (backup_2019-04-07-0252_Joyoung__e4d7ef025a6a-db-table-wp_pekw_woocommerce_tax_rates.table.gz - 0.4 KB)
0002.335 (0) Table wp_pekw_yith_wcwl: Total expected rows (approximate): 26
0002.341 (0) Table wp_pekw_yith_wcwl: Total rows added: 26 in 0.00 seconds
0002.343 (0) Table wp_pekw_yith_wcwl: finishing file (backup_2019-04-07-0252_Joyoung__e4d7ef025a6a-db-table-wp_pekw_yith_wcwl.table.gz - 0.8 KB)
0002.349 (0) Table wp_pekw_yith_wcwl_lists: Total expected rows (approximate): 84
0002.357 (0) Table wp_pekw_yith_wcwl_lists: Total rows added: 84 in 0.01 seconds
0002.359 (0) Table wp_pekw_yith_wcwl_lists: finishing file (backup_2019-04-07-0252_Joyoung__e4d7ef025a6a-db-table-wp_pekw_yith_wcwl_lists.table.gz - 1.7 KB)
0002.366 (0) backup_2019-04-07-0252_Joyoung__e4d7ef025a6a-db-table-wp_pekw_options.table.gz (1/54): adding to final database dump
0002.458 (0) backup_2019-04-07-0252_Joyoung__e4d7ef025a6a-db-table-wp_pekw_users.table.gz (2/54): adding to final database dump
0002.466 (0) backup_2019-04-07-0252_Joyoung__e4d7ef025a6a-db-table-wp_pekw_usermeta.table.gz (3/54): adding to final database dump
0002.504 (0) backup_2019-04-07-0252_Joyoung__e4d7ef025a6a-db-table-wp_pekw_commentmeta.table.gz (4/54): adding to final database dump
0002.509 (0) backup_2019-04-07-0252_Joyoung__e4d7ef025a6a-db-table-wp_pekw_comments.table.gz (5/54): adding to final database dump
0002.512 (0) backup_2019-04-07-0252_Joyoung__e4d7ef025a6a-db-table-wp_pekw_links.table.gz (6/54): adding to final database dump
0002.515 (0) backup_2019-04-07-0252_Joyoung__e4d7ef025a6a-db-table-wp_pekw_postmeta.table.gz (7/54): adding to final database dump
0002.643 (0) backup_2019-04-07-0252_Joyoung__e4d7ef025a6a-db-table-wp_pekw_posts.table.gz (8/54): adding to final database dump
0002.975 (0) backup_2019-04-07-0252_Joyoung__e4d7ef025a6a-db-table-wp_pekw_term_relationships.table.gz (9/54): adding to final database dump
0002.980 (0) backup_2019-04-07-0252_Joyoung__e4d7ef025a6a-db-table-wp_pekw_term_taxonomy.table.gz (10/54): adding to final database dump
0002.983 (0) backup_2019-04-07-0252_Joyoung__e4d7ef025a6a-db-table-wp_pekw_termmeta.table.gz (11/54): adding to final database dump
0002.985 (0) backup_2019-04-07-0252_Joyoung__e4d7ef025a6a-db-table-wp_pekw_terms.table.gz (12/54): adding to final database dump
0002.987 (0) backup_2019-04-07-0252_Joyoung__e4d7ef025a6a-db-table-wp_pekw_woocommerce_order_itemmeta.table.gz (13/54): adding to final database dump
0002.989 (0) backup_2019-04-07-0252_Joyoung__e4d7ef025a6a-db-table-wp_pekw_woocommerce_payment_tokenmeta.table.gz (14/54): adding to final database dump
0002.991 (0) backup_2019-04-07-0252_Joyoung__e4d7ef025a6a-db-table-wp_pekw_ahm_download_stats.table.gz (15/54): adding to final database dump
0003.161 (0) backup_2019-04-07-0252_Joyoung__e4d7ef025a6a-db-table-wp_pekw_ahm_emails.table.gz (16/54): adding to final database dump
0003.165 (0) backup_2019-04-07-0252_Joyoung__e4d7ef025a6a-db-table-wp_pekw_aiowps_events.table.gz (17/54): adding to final database dump
0003.168 (0) backup_2019-04-07-0252_Joyoung__e4d7ef025a6a-db-table-wp_pekw_aiowps_failed_logins.table.gz (18/54): adding to final database dump
0003.179 (0) backup_2019-04-07-0252_Joyoung__e4d7ef025a6a-db-table-wp_pekw_aiowps_global_meta.table.gz (19/54): adding to final database dump
0003.181 (0) backup_2019-04-07-0252_Joyoung__e4d7ef025a6a-db-table-wp_pekw_aiowps_login_activity.table.gz (20/54): adding to final database dump
0003.187 (0) backup_2019-04-07-0252_Joyoung__e4d7ef025a6a-db-table-wp_pekw_aiowps_login_lockdown.table.gz (21/54): adding to final database dump
0003.201 (0) backup_2019-04-07-0252_Joyoung__e4d7ef025a6a-db-table-wp_pekw_aiowps_permanent_block.table.gz (22/54): adding to final database dump
0003.204 (0) backup_2019-04-07-0252_Joyoung__e4d7ef025a6a-db-table-wp_pekw_blc_filters.table.gz (23/54): adding to final database dump
0003.206 (0) backup_2019-04-07-0252_Joyoung__e4d7ef025a6a-db-table-wp_pekw_blc_instances.table.gz (24/54): adding to final database dump
0003.211 (0) backup_2019-04-07-0252_Joyoung__e4d7ef025a6a-db-table-wp_pekw_blc_links.table.gz (25/54): adding to final database dump
0003.222 (0) backup_2019-04-07-0252_Joyoung__e4d7ef025a6a-db-table-wp_pekw_blc_synch.table.gz (26/54): adding to final database dump
0003.226 (0) backup_2019-04-07-0252_Joyoung__e4d7ef025a6a-db-table-wp_pekw_nf_objectmeta.table.gz (27/54): adding to final database dump
0003.231 (0) backup_2019-04-07-0252_Joyoung__e4d7ef025a6a-db-table-wp_pekw_nf_objects.table.gz (28/54): adding to final database dump
0003.234 (0) backup_2019-04-07-0252_Joyoung__e4d7ef025a6a-db-table-wp_pekw_nf_relationships.table.gz (29/54): adding to final database dump
0003.237 (0) backup_2019-04-07-0252_Joyoung__e4d7ef025a6a-db-table-wp_pekw_ninja_forms_fav_fields.table.gz (30/54): adding to final database dump
0003.240 (0) backup_2019-04-07-0252_Joyoung__e4d7ef025a6a-db-table-wp_pekw_ninja_forms_fields.table.gz (31/54): adding to final database dump
0003.245 (0) backup_2019-04-07-0252_Joyoung__e4d7ef025a6a-db-table-wp_pekw_ninja_forms_uploads.table.gz (32/54): adding to final database dump
0003.250 (0) backup_2019-04-07-0252_Joyoung__e4d7ef025a6a-db-table-wp_pekw_podsrel.table.gz (33/54): adding to final database dump
0003.253 (0) backup_2019-04-07-0252_Joyoung__e4d7ef025a6a-db-table-wp_pekw_revslider_css.table.gz (34/54): adding to final database dump
0003.259 (0) backup_2019-04-07-0252_Joyoung__e4d7ef025a6a-db-table-wp_pekw_revslider_layer_animations.table.gz (35/54): adding to final database dump
0003.262 (0) backup_2019-04-07-0252_Joyoung__e4d7ef025a6a-db-table-wp_pekw_revslider_navigations.table.gz (36/54): adding to final database dump
0003.264 (0) backup_2019-04-07-0252_Joyoung__e4d7ef025a6a-db-table-wp_pekw_revslider_sliders.table.gz (37/54): adding to final database dump
0003.267 (0) backup_2019-04-07-0252_Joyoung__e4d7ef025a6a-db-table-wp_pekw_revslider_slides.table.gz (38/54): adding to final database dump
0003.269 (0) backup_2019-04-07-0252_Joyoung__e4d7ef025a6a-db-table-wp_pekw_revslider_static_slides.table.gz (39/54): adding to final database dump
0003.272 (0) backup_2019-04-07-0252_Joyoung__e4d7ef025a6a-db-table-wp_pekw_social_users.table.gz (40/54): adding to final database dump
0003.274 (0) backup_2019-04-07-0252_Joyoung__e4d7ef025a6a-db-table-wp_pekw_taxonomymeta.table.gz (41/54): adding to final database dump
0003.276 (0) backup_2019-04-07-0252_Joyoung__e4d7ef025a6a-db-table-wp_pekw_woocommerce_api_keys.table.gz (42/54): adding to final database dump
0003.278 (0) backup_2019-04-07-0252_Joyoung__e4d7ef025a6a-db-table-wp_pekw_woocommerce_attribute_taxonomies.table.gz (43/54): adding to final database dump
0003.280 (0) backup_2019-04-07-0252_Joyoung__e4d7ef025a6a-db-table-wp_pekw_woocommerce_downloadable_product_permissions.table.gz (44/54): adding to final database dump
0003.282 (0) backup_2019-04-07-0252_Joyoung__e4d7ef025a6a-db-table-wp_pekw_woocommerce_order_items.table.gz (45/54): adding to final database dump
0003.284 (0) backup_2019-04-07-0252_Joyoung__e4d7ef025a6a-db-table-wp_pekw_woocommerce_payment_tokens.table.gz (46/54): adding to final database dump
0003.286 (0) backup_2019-04-07-0252_Joyoung__e4d7ef025a6a-db-table-wp_pekw_woocommerce_sessions.table.gz (47/54): adding to final database dump
0003.287 (0) backup_2019-04-07-0252_Joyoung__e4d7ef025a6a-db-table-wp_pekw_woocommerce_shipping_zone_locations.table.gz (48/54): adding to final database dump
0003.289 (0) backup_2019-04-07-0252_Joyoung__e4d7ef025a6a-db-table-wp_pekw_woocommerce_shipping_zone_methods.table.gz (49/54): adding to final database dump
0003.291 (0) backup_2019-04-07-0252_Joyoung__e4d7ef025a6a-db-table-wp_pekw_woocommerce_shipping_zones.table.gz (50/54): adding to final database dump
0003.293 (0) backup_2019-04-07-0252_Joyoung__e4d7ef025a6a-db-table-wp_pekw_woocommerce_tax_rate_locations.table.gz (51/54): adding to final database dump
0003.295 (0) backup_2019-04-07-0252_Joyoung__e4d7ef025a6a-db-table-wp_pekw_woocommerce_tax_rates.table.gz (52/54): adding to final database dump
0003.297 (0) backup_2019-04-07-0252_Joyoung__e4d7ef025a6a-db-table-wp_pekw_yith_wcwl.table.gz (53/54): adding to final database dump
0003.299 (0) backup_2019-04-07-0252_Joyoung__e4d7ef025a6a-db-table-wp_pekw_yith_wcwl_lists.table.gz (54/54): adding to final database dump
0003.301 (0) backup_2019-04-07-0252_Joyoung__e4d7ef025a6a-db.gz: finished writing out complete database file (2912 KB)
0003.323 (0) Total database tables backed up: 54 (backup_2019-04-07-0252_Joyoung__e4d7ef025a6a-db.gz, size: 3004448, checksum (SHA1): f8c0221a8aa3bddb96fa845fe649900fde34e9c8)
0003.337 (0) backup_2019-04-07-0252_Joyoung__e4d7ef025a6a-db.gz: db: This file has not yet been successfully uploaded: will queue
0003.339 (0) Saving backup history. Total backup size: 2.9 MB
0003.346 (0) Requesting upload of the files that have not yet been successfully uploaded (1)
0003.352 (0) Cloud backup selection (1/1):  (last)
0003.356 (0) No remote despatch: user chose no remote backup service
0003.360 (0) Recording as successfully uploaded: backup_2019-04-07-0252_Joyoung__e4d7ef025a6a-db.gz (b26bd64135cf83e286ea5e7d107028be)
0003.373 (0) Retain: beginning examination of existing backup sets; user setting: retain_files=2, retain_db=14
0003.376 (0) Number of backup sets in history: 15; groups (db): 1
0003.378 (0) Examining (for databases) backup set with group_id=0, nonce=e4d7ef025a6a, datestamp=1554576742 (Apr 06 2019 18:52:22)
0003.379 (0) This backup set is the backup set just made, so will not be deleted.
0003.381 (0) Examining (for databases) backup set with group_id=0, nonce=2185ba4777d6, datestamp=1554490346 (Apr 05 2019 18:52:26)
0003.382 (0) This backup set remains non-empty (f=0/d=1); will retain in history
0003.384 (0) Examining (for databases) backup set with group_id=0, nonce=59a8c6159a35, datestamp=1554403953 (Apr 04 2019 18:52:33)
0003.386 (0) This backup set remains non-empty (f=0/d=1); will retain in history
0003.388 (0) Examining (for databases) backup set with group_id=0, nonce=c7a047e7ea03, datestamp=1554317545 (Apr 03 2019 18:52:25)
0003.389 (0) This backup set remains non-empty (f=0/d=1); will retain in history
0003.391 (0) Examining (for databases) backup set with group_id=0, nonce=a5875dfc8981, datestamp=1554231169 (Apr 02 2019 18:52:49)
0003.393 (0) This backup set remains non-empty (f=0/d=1); will retain in history
0003.394 (0) Examining (for databases) backup set with group_id=0, nonce=ab60807fb35f, datestamp=1554144818 (Apr 01 2019 18:53:38)
0003.396 (0) This backup set remains non-empty (f=1/d=1); will retain in history
0003.398 (0) Examining (for databases) backup set with group_id=0, nonce=e817c8a43cef, datestamp=1554058345 (Mar 31 2019 18:52:25)
0003.400 (0) This backup set remains non-empty (f=0/d=1); will retain in history
0003.401 (0) Examining (for databases) backup set with group_id=0, nonce=ff9092df28df, datestamp=1553971943 (Mar 30 2019 18:52:23)
0003.403 (0) This backup set remains non-empty (f=0/d=1); will retain in history
0003.404 (0) Examining (for databases) backup set with group_id=0, nonce=1843606c22e6, datestamp=1553885571 (Mar 29 2019 18:52:51)
0003.406 (0) This backup set remains non-empty (f=0/d=1); will retain in history
0003.407 (0) Examining (for databases) backup set with group_id=0, nonce=2f96141746c2, datestamp=1553799163 (Mar 28 2019 18:52:43)
0003.409 (0) This backup set remains non-empty (f=0/d=1); will retain in history
0003.411 (0) Examining (for databases) backup set with group_id=0, nonce=f767c126e03f, datestamp=1553712754 (Mar 27 2019 18:52:34)
0003.413 (0) This backup set remains non-empty (f=0/d=1); will retain in history
0003.414 (0) Examining (for databases) backup set with group_id=0, nonce=ac30093bc1b0, datestamp=1553626370 (Mar 26 2019 18:52:50)
0003.416 (0) This backup set remains non-empty (f=0/d=1); will retain in history
0003.418 (0) Examining (for databases) backup set with group_id=0, nonce=ba8e9503b843, datestamp=1553539941 (Mar 25 2019 18:52:21)
0003.420 (0) This backup set remains non-empty (f=1/d=1); will retain in history
0003.423 (0) Examining (for databases) backup set with group_id=0, nonce=005b62bb7071, datestamp=1553453587 (Mar 24 2019 18:53:07)
0003.425 (0) This backup set remains non-empty (f=0/d=1); will retain in history
0003.427 (0) Examining (for databases) backup set with group_id=0, nonce=2857295ee79b, datestamp=1553367177 (Mar 23 2019 18:52:57)
0003.430 (0) 1553367177: db: this set includes a database (backup_2019-03-24-0252_Joyoung__2857295ee79b-db.gz); db count is now 14
0003.432 (0) 1553367177: db: over retain limit (14); will delete this database
0003.435 (0) Delete file: backup_2019-03-24-0252_Joyoung__2857295ee79b-db.gz, service=none
0003.437 (0) Deleting local copy (backup_2019-03-24-0252_Joyoung__2857295ee79b-db.gz)
0003.442 (0) This backup set is now empty; will remove from history
0003.444 (0) Deleting log file (log.2857295ee79b.txt)
0003.446 (0) Number of backup sets in history: 14; groups (files): 1
0003.448 (0) Examining (for files) backup set with nonce=e4d7ef025a6a, datestamp=1554576742 (Apr 06 2019 18:52:22)
0003.450 (0) This backup set remains non-empty (f=0/d=1); will retain in history
0003.451 (0) Examining (for files) backup set with nonce=2185ba4777d6, datestamp=1554490346 (Apr 05 2019 18:52:26)
0003.453 (0) This backup set remains non-empty (f=0/d=1); will retain in history
0003.455 (0) Examining (for files) backup set with nonce=59a8c6159a35, datestamp=1554403953 (Apr 04 2019 18:52:33)
0003.457 (0) This backup set remains non-empty (f=0/d=1); will retain in history
0003.459 (0) Examining (for files) backup set with nonce=c7a047e7ea03, datestamp=1554317545 (Apr 03 2019 18:52:25)
0003.461 (0) This backup set remains non-empty (f=0/d=1); will retain in history
0003.463 (0) Examining (for files) backup set with nonce=a5875dfc8981, datestamp=1554231169 (Apr 02 2019 18:52:49)
0003.465 (0) This backup set remains non-empty (f=0/d=1); will retain in history
0003.468 (0) Examining (for files) backup set with nonce=ab60807fb35f, datestamp=1554144818 (Apr 01 2019 18:53:38)
0003.470 (0) This backup set remains non-empty (f=1/d=1); will retain in history
0003.473 (0) Examining (for files) backup set with nonce=e817c8a43cef, datestamp=1554058345 (Mar 31 2019 18:52:25)
0003.475 (0) This backup set remains non-empty (f=0/d=1); will retain in history
0003.479 (0) Examining (for files) backup set with nonce=ff9092df28df, datestamp=1553971943 (Mar 30 2019 18:52:23)
0003.481 (0) This backup set remains non-empty (f=0/d=1); will retain in history
0003.482 (0) Examining (for files) backup set with nonce=1843606c22e6, datestamp=1553885571 (Mar 29 2019 18:52:51)
0003.484 (0) This backup set remains non-empty (f=0/d=1); will retain in history
0003.486 (0) Examining (for files) backup set with nonce=2f96141746c2, datestamp=1553799163 (Mar 28 2019 18:52:43)
0003.488 (0) This backup set remains non-empty (f=0/d=1); will retain in history
0003.490 (0) Examining (for files) backup set with nonce=f767c126e03f, datestamp=1553712754 (Mar 27 2019 18:52:34)
0003.492 (0) This backup set remains non-empty (f=0/d=1); will retain in history
0003.493 (0) Examining (for files) backup set with nonce=ac30093bc1b0, datestamp=1553626370 (Mar 26 2019 18:52:50)
0003.496 (0) This backup set remains non-empty (f=0/d=1); will retain in history
0003.498 (0) Examining (for files) backup set with nonce=ba8e9503b843, datestamp=1553539941 (Mar 25 2019 18:52:21)
0003.500 (0) This backup set remains non-empty (f=1/d=1); will retain in history
0003.502 (0) Examining (for files) backup set with nonce=005b62bb7071, datestamp=1553453587 (Mar 24 2019 18:53:07)
0003.504 (0) This backup set remains non-empty (f=0/d=1); will retain in history
0003.506 (0) Retain: saving new backup history (sets now: 14) and finishing retain operation
0003.514 (0) Resume backup (e4d7ef025a6a, 0): finish run
0003.518 (0) Decremented the semaphore (d) by 1
0003.522 (0) Semaphore (d) unlocked
0003.524 (0) There were no errors in the uploads, so the 'resume' event (1) is being unscheduled
0003.535 (0) The backup apparently succeeded and is now complete
0003.537 (0) Fetching RSS news feed
0003.656 (0) Fetched RSS news feed; result is a: SimplePie
0003.661 (0) Sending email ('Database only (files were not part of this particular schedule)') report (attachments: 0, size: 0 KB) to: globa...
0006.807 (0) 備份工作已完成
