0000.004 (0) Opened log file at time: Mon, 08 Apr 2019 18:52:38 +0000 on http://global.joyoung.com
0000.007 (0) UpdraftPlus WordPress backup plugin (https://updraftplus.com): 1.12.20 WP: 4.6.1 PHP: 5.4.45 (Linux globalvps.joyoung.com 2.6.32-573.22.1.el6.x86_64 #1 SMP Wed Mar 23 03:35:39 UTC 2016 x86_64) MySQL: 5.6.70 WPLANG: zh_TW Server: Apache/2.2.15 (CentOS) safe_mode: 0 max_execution_time: 900 memory_limit: 256M (used: 76.2M | 77.5M) multisite: N openssl: OpenSSL 1.0.1e-fips 11 Feb 2013 mcrypt: Y LANG: C ZipArchive::addFile: Y
0000.010 (0) Free space on disk containing Updraft's temporary directory: 24986.7 MB
0000.018 (0) Tasks: Backup files: 1 (schedule: weekly) Backup DB:  (schedule: daily)
0000.022 (0) Processed schedules. Combining jobs from co-inciding events. Tasks now: Backup files: 1 Backup DB: 1
0000.028 (0) Requesting semaphore lock (fd) (apparently via scheduler: last_scheduled_action_called_at=1554144818, seconds_ago=604740)
0000.034 (0) Set semaphore last lock (fd) time to 2019-04-08 18:52:38
0000.035 (0) Semaphore lock (fd) complete
0000.043 (0) Backup run: resumption=0, nonce=5596c6a49ae2, begun at=1554749558 (0s ago), job type=backup
0000.046 (0) Scheduling a resumption (1) after 300 seconds (1554749858) in case this run gets aborted
0000.065 (0) Checking if we have a zip executable available
0000.068 (0) Testing: /usr/bin/zip
0000.088 (0) Output: zip warning: binziptest/test.zip not found or empty
0000.091 (0) Output: adding: binziptest/subdir1/	(in=0) (out=0) (stored 0%)
0000.092 (0) Output: adding: binziptest/subdir1/subdir2/	(in=0) (out=0) (stored 0%)
0000.094 (0) Output: adding: binziptest/subdir1/subdir2/test.html	(in=131) (out=107) (deflated 18%)
0000.096 (0) Output: total bytes=131, compressed=107 -> 18% savings
0000.104 (0) Output: adding: binziptest/subdir1/subdir2/test2.html	(in=138) (out=113) (deflated 18%)
0000.106 (0) Output: total bytes=269, compressed=220 -> 18% savings
0000.120 (0) Working binary zip found: /usr/bin/zip
0000.124 (0) Zip engine: found/will use a binary zip: /usr/bin/zip
0000.126 (0) Creation of backups of directories: beginning
0000.133 (0) Beginning creation of dump of plugins (split every: 400 MB)
0001.413 (0) Total entities for the zip file: 1214 directories, 7637 files (0 skipped as non-modified), 115.1 MB
0001.420 (0) Zip: backup_2019-04-09-0252_Joyoung__5596c6a49ae2-plugins.zip.tmp: 100 files added (on-disk size: 0 KB)
0001.427 (0) Zip: backup_2019-04-09-0252_Joyoung__5596c6a49ae2-plugins.zip.tmp: 200 files added (on-disk size: 0 KB)
0001.432 (0) Zip: backup_2019-04-09-0252_Joyoung__5596c6a49ae2-plugins.zip.tmp: 300 files added (on-disk size: 0 KB)
0001.438 (0) Zip: backup_2019-04-09-0252_Joyoung__5596c6a49ae2-plugins.zip.tmp: 400 files added (on-disk size: 0 KB)
0001.442 (0) Zip: backup_2019-04-09-0252_Joyoung__5596c6a49ae2-plugins.zip.tmp: 500 files added (on-disk size: 0 KB)
0001.445 (0) Adding batch to zip file (UpdraftPlus_BinZip): over 500 files added on this batch (6.1 MB, 7637 files batched, 501 (501) added so far); re-opening (prior size: 0 KB)
0002.541 (0) backup_2019-04-09-0252_Joyoung__5596c6a49ae2-plugins.zip.tmp: size is now: 2.50 MB
0002.550 (0) Zip: backup_2019-04-09-0252_Joyoung__5596c6a49ae2-plugins.zip.tmp: 600 files added (on-disk size: 2563.5 KB)
0002.556 (0) Zip: backup_2019-04-09-0252_Joyoung__5596c6a49ae2-plugins.zip.tmp: 700 files added (on-disk size: 2563.5 KB)
0002.561 (0) Zip: backup_2019-04-09-0252_Joyoung__5596c6a49ae2-plugins.zip.tmp: 800 files added (on-disk size: 2563.5 KB)
0002.566 (0) Zip: backup_2019-04-09-0252_Joyoung__5596c6a49ae2-plugins.zip.tmp: 900 files added (on-disk size: 2563.5 KB)
0002.571 (0) Zip: backup_2019-04-09-0252_Joyoung__5596c6a49ae2-plugins.zip.tmp: 1000 files added (on-disk size: 2563.5 KB)
0002.574 (0) Adding batch to zip file (UpdraftPlus_BinZip): over 500 files added on this batch (2.1 MB, 7637 files batched, 501 (1002) added so far); re-opening (prior size: 2563.5 KB)
0003.651 (0) backup_2019-04-09-0252_Joyoung__5596c6a49ae2-plugins.zip.tmp: size is now: 3.20 MB
0003.662 (0) Zip: backup_2019-04-09-0252_Joyoung__5596c6a49ae2-plugins.zip.tmp: 1100 files added (on-disk size: 3314.3 KB)
0003.667 (0) Zip: backup_2019-04-09-0252_Joyoung__5596c6a49ae2-plugins.zip.tmp: 1200 files added (on-disk size: 3314.3 KB)
0003.672 (0) Zip: backup_2019-04-09-0252_Joyoung__5596c6a49ae2-plugins.zip.tmp: 1300 files added (on-disk size: 3314.3 KB)
0003.676 (0) Zip: backup_2019-04-09-0252_Joyoung__5596c6a49ae2-plugins.zip.tmp: 1400 files added (on-disk size: 3314.3 KB)
0003.682 (0) Zip: backup_2019-04-09-0252_Joyoung__5596c6a49ae2-plugins.zip.tmp: 1500 files added (on-disk size: 3314.3 KB)
0003.684 (0) Adding batch to zip file (UpdraftPlus_BinZip): over 500 files added on this batch (12.2 MB, 7637 files batched, 501 (1503) added so far); re-opening (prior size: 3314.3 KB)
0005.320 (0) backup_2019-04-09-0252_Joyoung__5596c6a49ae2-plugins.zip.tmp: size is now: 7.10 MB
0005.330 (0) Zip: backup_2019-04-09-0252_Joyoung__5596c6a49ae2-plugins.zip.tmp: 1600 files added (on-disk size: 7310.3 KB)
0005.335 (0) Zip: backup_2019-04-09-0252_Joyoung__5596c6a49ae2-plugins.zip.tmp: 1700 files added (on-disk size: 7310.3 KB)
0005.340 (0) Zip: backup_2019-04-09-0252_Joyoung__5596c6a49ae2-plugins.zip.tmp: 1800 files added (on-disk size: 7310.3 KB)
0005.345 (0) Zip: backup_2019-04-09-0252_Joyoung__5596c6a49ae2-plugins.zip.tmp: 1900 files added (on-disk size: 7310.3 KB)
0005.350 (0) Zip: backup_2019-04-09-0252_Joyoung__5596c6a49ae2-plugins.zip.tmp: 2000 files added (on-disk size: 7310.3 KB)
0005.352 (0) Adding batch to zip file (UpdraftPlus_BinZip): over 500 files added on this batch (8.2 MB, 7637 files batched, 501 (2004) added so far); re-opening (prior size: 7310.3 KB)
0006.265 (0) backup_2019-04-09-0252_Joyoung__5596c6a49ae2-plugins.zip.tmp: size is now: 9.00 MB
0006.277 (0) Zip: backup_2019-04-09-0252_Joyoung__5596c6a49ae2-plugins.zip.tmp: 2100 files added (on-disk size: 9203.4 KB)
0006.282 (0) Zip: backup_2019-04-09-0252_Joyoung__5596c6a49ae2-plugins.zip.tmp: 2200 files added (on-disk size: 9203.4 KB)
0006.287 (0) Zip: backup_2019-04-09-0252_Joyoung__5596c6a49ae2-plugins.zip.tmp: 2300 files added (on-disk size: 9203.4 KB)
0006.292 (0) Zip: backup_2019-04-09-0252_Joyoung__5596c6a49ae2-plugins.zip.tmp: 2400 files added (on-disk size: 9203.4 KB)
0006.297 (0) Zip: backup_2019-04-09-0252_Joyoung__5596c6a49ae2-plugins.zip.tmp: 2500 files added (on-disk size: 9203.4 KB)
0006.299 (0) Adding batch to zip file (UpdraftPlus_BinZip): over 500 files added on this batch (5.6 MB, 7637 files batched, 501 (2505) added so far); re-opening (prior size: 9203.4 KB)
0007.095 (0) Zip: backup_2019-04-09-0252_Joyoung__5596c6a49ae2-plugins.zip.tmp: 2600 files added (on-disk size: 11013.7 KB)
0007.101 (0) Zip: backup_2019-04-09-0252_Joyoung__5596c6a49ae2-plugins.zip.tmp: 2700 files added (on-disk size: 11013.7 KB)
0007.105 (0) Zip: backup_2019-04-09-0252_Joyoung__5596c6a49ae2-plugins.zip.tmp: 2800 files added (on-disk size: 11013.7 KB)
0007.110 (0) Zip: backup_2019-04-09-0252_Joyoung__5596c6a49ae2-plugins.zip.tmp: 2900 files added (on-disk size: 11013.7 KB)
0007.115 (0) Zip: backup_2019-04-09-0252_Joyoung__5596c6a49ae2-plugins.zip.tmp: 3000 files added (on-disk size: 11013.7 KB)
0007.117 (0) Adding batch to zip file (UpdraftPlus_BinZip): over 500 files added on this batch (6.5 MB, 7637 files batched, 501 (3006) added so far); re-opening (prior size: 11013.7 KB)
0007.999 (0) backup_2019-04-09-0252_Joyoung__5596c6a49ae2-plugins.zip.tmp: size is now: 14.50 MB
0008.008 (0) Zip: backup_2019-04-09-0252_Joyoung__5596c6a49ae2-plugins.zip.tmp: 3100 files added (on-disk size: 14835.3 KB)
0008.014 (0) Zip: backup_2019-04-09-0252_Joyoung__5596c6a49ae2-plugins.zip.tmp: 3200 files added (on-disk size: 14835.3 KB)
0008.019 (0) Zip: backup_2019-04-09-0252_Joyoung__5596c6a49ae2-plugins.zip.tmp: 3300 files added (on-disk size: 14835.3 KB)
0008.023 (0) Zip: backup_2019-04-09-0252_Joyoung__5596c6a49ae2-plugins.zip.tmp: 3400 files added (on-disk size: 14835.3 KB)
0008.028 (0) Zip: backup_2019-04-09-0252_Joyoung__5596c6a49ae2-plugins.zip.tmp: 3500 files added (on-disk size: 14835.3 KB)
0008.030 (0) Adding batch to zip file (UpdraftPlus_BinZip): over 500 files added on this batch (4.9 MB, 7637 files batched, 501 (3507) added so far); re-opening (prior size: 14835.3 KB)
0008.796 (0) Zip: backup_2019-04-09-0252_Joyoung__5596c6a49ae2-plugins.zip.tmp: 3600 files added (on-disk size: 16473.4 KB)
0008.803 (0) Zip: backup_2019-04-09-0252_Joyoung__5596c6a49ae2-plugins.zip.tmp: 3700 files added (on-disk size: 16473.4 KB)
0008.809 (0) Zip: backup_2019-04-09-0252_Joyoung__5596c6a49ae2-plugins.zip.tmp: 3800 files added (on-disk size: 16473.4 KB)
0008.814 (0) Zip: backup_2019-04-09-0252_Joyoung__5596c6a49ae2-plugins.zip.tmp: 3900 files added (on-disk size: 16473.4 KB)
0008.820 (0) Zip: backup_2019-04-09-0252_Joyoung__5596c6a49ae2-plugins.zip.tmp: 4000 files added (on-disk size: 16473.4 KB)
0008.822 (0) Adding batch to zip file (UpdraftPlus_BinZip): over 500 files added on this batch (6 MB, 7637 files batched, 501 (4008) added so far); re-opening (prior size: 16473.4 KB)
0009.688 (0) Zip: backup_2019-04-09-0252_Joyoung__5596c6a49ae2-plugins.zip.tmp: 4100 files added (on-disk size: 18063.6 KB)
0009.693 (0) Zip: backup_2019-04-09-0252_Joyoung__5596c6a49ae2-plugins.zip.tmp: 4200 files added (on-disk size: 18063.6 KB)
0009.698 (0) Zip: backup_2019-04-09-0252_Joyoung__5596c6a49ae2-plugins.zip.tmp: 4300 files added (on-disk size: 18063.6 KB)
0009.703 (0) Zip: backup_2019-04-09-0252_Joyoung__5596c6a49ae2-plugins.zip.tmp: 4400 files added (on-disk size: 18063.6 KB)
0009.708 (0) Zip: backup_2019-04-09-0252_Joyoung__5596c6a49ae2-plugins.zip.tmp: 4500 files added (on-disk size: 18063.6 KB)
0009.709 (0) Adding batch to zip file (UpdraftPlus_BinZip): over 500 files added on this batch (6.4 MB, 7637 files batched, 501 (4509) added so far); re-opening (prior size: 18063.6 KB)
0010.933 (0) backup_2019-04-09-0252_Joyoung__5596c6a49ae2-plugins.zip.tmp: size is now: 21.20 MB
0010.945 (0) Zip: backup_2019-04-09-0252_Joyoung__5596c6a49ae2-plugins.zip.tmp: 4600 files added (on-disk size: 21715.8 KB)
0010.950 (0) Zip: backup_2019-04-09-0252_Joyoung__5596c6a49ae2-plugins.zip.tmp: 4700 files added (on-disk size: 21715.8 KB)
0010.956 (0) Zip: backup_2019-04-09-0252_Joyoung__5596c6a49ae2-plugins.zip.tmp: 4800 files added (on-disk size: 21715.8 KB)
0010.961 (0) Zip: backup_2019-04-09-0252_Joyoung__5596c6a49ae2-plugins.zip.tmp: 4900 files added (on-disk size: 21715.8 KB)
0010.966 (0) Zip: backup_2019-04-09-0252_Joyoung__5596c6a49ae2-plugins.zip.tmp: 5000 files added (on-disk size: 21715.8 KB)
0010.969 (0) Adding batch to zip file (UpdraftPlus_BinZip): over 500 files added on this batch (6 MB, 7637 files batched, 501 (5010) added so far); re-opening (prior size: 21715.8 KB)
0011.986 (0) Zip: backup_2019-04-09-0252_Joyoung__5596c6a49ae2-plugins.zip.tmp: 5100 files added (on-disk size: 25075.7 KB)
0011.993 (0) Zip: backup_2019-04-09-0252_Joyoung__5596c6a49ae2-plugins.zip.tmp: 5200 files added (on-disk size: 25075.7 KB)
0011.999 (0) Zip: backup_2019-04-09-0252_Joyoung__5596c6a49ae2-plugins.zip.tmp: 5300 files added (on-disk size: 25075.7 KB)
0012.004 (0) Zip: backup_2019-04-09-0252_Joyoung__5596c6a49ae2-plugins.zip.tmp: 5400 files added (on-disk size: 25075.7 KB)
0012.011 (0) Zip: backup_2019-04-09-0252_Joyoung__5596c6a49ae2-plugins.zip.tmp: 5500 files added (on-disk size: 25075.7 KB)
0012.013 (0) Adding batch to zip file (UpdraftPlus_BinZip): over 500 files added on this batch (8.6 MB, 7637 files batched, 501 (5511) added so far); re-opening (prior size: 25075.7 KB)
0013.122 (0) Zip: backup_2019-04-09-0252_Joyoung__5596c6a49ae2-plugins.zip.tmp: 5600 files added (on-disk size: 29695.9 KB)
0013.128 (0) Zip: backup_2019-04-09-0252_Joyoung__5596c6a49ae2-plugins.zip.tmp: 5700 files added (on-disk size: 29695.9 KB)
0013.133 (0) Zip: backup_2019-04-09-0252_Joyoung__5596c6a49ae2-plugins.zip.tmp: 5800 files added (on-disk size: 29695.9 KB)
0013.139 (0) Zip: backup_2019-04-09-0252_Joyoung__5596c6a49ae2-plugins.zip.tmp: 5900 files added (on-disk size: 29695.9 KB)
0013.144 (0) Zip: backup_2019-04-09-0252_Joyoung__5596c6a49ae2-plugins.zip.tmp: 6000 files added (on-disk size: 29695.9 KB)
0013.147 (0) Adding batch to zip file (UpdraftPlus_BinZip): over 500 files added on this batch (9.4 MB, 7637 files batched, 501 (6012) added so far); re-opening (prior size: 29695.9 KB)
0014.220 (0) Zip: backup_2019-04-09-0252_Joyoung__5596c6a49ae2-plugins.zip.tmp: 6100 files added (on-disk size: 34337.6 KB)
0014.226 (0) Zip: backup_2019-04-09-0252_Joyoung__5596c6a49ae2-plugins.zip.tmp: 6200 files added (on-disk size: 34337.6 KB)
0014.232 (0) Zip: backup_2019-04-09-0252_Joyoung__5596c6a49ae2-plugins.zip.tmp: 6300 files added (on-disk size: 34337.6 KB)
0014.238 (0) Zip: backup_2019-04-09-0252_Joyoung__5596c6a49ae2-plugins.zip.tmp: 6400 files added (on-disk size: 34337.6 KB)
0014.243 (0) Zip: backup_2019-04-09-0252_Joyoung__5596c6a49ae2-plugins.zip.tmp: 6500 files added (on-disk size: 34337.6 KB)
0014.246 (0) Adding batch to zip file (UpdraftPlus_BinZip): over 500 files added on this batch (7.5 MB, 7637 files batched, 501 (6513) added so far); re-opening (prior size: 34337.6 KB)
0015.213 (0) Zip: backup_2019-04-09-0252_Joyoung__5596c6a49ae2-plugins.zip.tmp: 6600 files added (on-disk size: 37138.1 KB)
0015.219 (0) Zip: backup_2019-04-09-0252_Joyoung__5596c6a49ae2-plugins.zip.tmp: 6700 files added (on-disk size: 37138.1 KB)
0015.226 (0) Zip: backup_2019-04-09-0252_Joyoung__5596c6a49ae2-plugins.zip.tmp: 6800 files added (on-disk size: 37138.1 KB)
0015.232 (0) Zip: backup_2019-04-09-0252_Joyoung__5596c6a49ae2-plugins.zip.tmp: 6900 files added (on-disk size: 37138.1 KB)
0015.238 (0) Zip: backup_2019-04-09-0252_Joyoung__5596c6a49ae2-plugins.zip.tmp: 7000 files added (on-disk size: 37138.1 KB)
0015.242 (0) Adding batch to zip file (UpdraftPlus_BinZip): over 500 files added on this batch (15.4 MB, 7637 files batched, 501 (7014) added so far); re-opening (prior size: 37138.1 KB)
0016.659 (0) Zip: backup_2019-04-09-0252_Joyoung__5596c6a49ae2-plugins.zip.tmp: 7100 files added (on-disk size: 41446.2 KB)
0016.664 (0) Zip: backup_2019-04-09-0252_Joyoung__5596c6a49ae2-plugins.zip.tmp: 7200 files added (on-disk size: 41446.2 KB)
0016.669 (0) Zip: backup_2019-04-09-0252_Joyoung__5596c6a49ae2-plugins.zip.tmp: 7300 files added (on-disk size: 41446.2 KB)
0016.674 (0) Zip: backup_2019-04-09-0252_Joyoung__5596c6a49ae2-plugins.zip.tmp: 7400 files added (on-disk size: 41446.2 KB)
0016.679 (0) Zip: backup_2019-04-09-0252_Joyoung__5596c6a49ae2-plugins.zip.tmp: 7500 files added (on-disk size: 41446.2 KB)
0016.682 (0) Adding batch to zip file (UpdraftPlus_BinZip): over 500 files added on this batch (8.9 MB, 7637 files batched, 501 (7515) added so far); re-opening (prior size: 41446.2 KB)
0017.708 (0) Zip: backup_2019-04-09-0252_Joyoung__5596c6a49ae2-plugins.zip.tmp: 7600 files added (on-disk size: 44740.7 KB)
0018.203 (0) Created plugins zip (0) - 45105.1 KB in 18.1 s (2496.5 KB/s) (SHA1 checksum: a827d9fa58e507604555430e0385e9d9c1442722)
0018.209 (0) Beginning creation of dump of themes (split every: 400 MB)
0018.270 (0) Total entities for the zip file: 77 directories, 618 files (0 skipped as non-modified), 7.2 MB
0018.276 (0) Zip: backup_2019-04-09-0252_Joyoung__5596c6a49ae2-themes.zip.tmp: 100 files added (on-disk size: 0 KB)
0018.281 (0) Zip: backup_2019-04-09-0252_Joyoung__5596c6a49ae2-themes.zip.tmp: 200 files added (on-disk size: 0 KB)
0018.287 (0) Zip: backup_2019-04-09-0252_Joyoung__5596c6a49ae2-themes.zip.tmp: 300 files added (on-disk size: 0 KB)
0018.292 (0) Zip: backup_2019-04-09-0252_Joyoung__5596c6a49ae2-themes.zip.tmp: 400 files added (on-disk size: 0 KB)
0018.299 (0) Zip: backup_2019-04-09-0252_Joyoung__5596c6a49ae2-themes.zip.tmp: 500 files added (on-disk size: 0 KB)
0018.301 (0) Adding batch to zip file (UpdraftPlus_BinZip): over 500 files added on this batch (5.4 MB, 618 files batched, 501 (501) added so far); re-opening (prior size: 0 KB)
0019.077 (0) backup_2019-04-09-0252_Joyoung__5596c6a49ae2-themes.zip.tmp: size is now: 3.10 MB
0019.087 (0) Zip: backup_2019-04-09-0252_Joyoung__5596c6a49ae2-themes.zip.tmp: 600 files added (on-disk size: 3224.7 KB)
0019.312 (0) backup_2019-04-09-0252_Joyoung__5596c6a49ae2-themes.zip.tmp: size is now: 3.80 MB
0019.342 (0) Created themes zip (0) - 3937.8 KB in 1.1 s (3486.2 KB/s) (SHA1 checksum: e36558d3040383d6c29d4955a489f127ea9dcb3e)
0019.347 (0) Exclusion option setting (uploads): backup*,*backups,backwpup*,wp-clone,snapshots
0019.349 (0) Looking for candidates to back up in: /home/joyoung/web/global.joyoung.com/public_html/wp-content/uploads
0019.350 (0) finding files: 2015: adding to list (1)
0019.352 (0) finding files: ultimatemember: adding to list (2)
0019.354 (0) finding files: backwpup-bbee28-logs: skipping: excluded by options (glob)
0019.355 (0) finding files: backwpup-bbee28-backups: skipping: excluded by options (glob)
0019.357 (0) finding files: backwpup-bbee28-backups: skipping: excluded by options (glob)
0019.357 (0) finding files: mc4wp-debug.log: adding to list (3)
0019.359 (0) finding files: 2018: adding to list (4)
0019.360 (0) finding files: 2019: adding to list (5)
0019.361 (0) finding files: woocommerce_uploads: adding to list (6)
0019.363 (0) finding files: backwpup-bbee28-temp: skipping: excluded by options (glob)
0019.365 (0) finding files: 2016: adding to list (7)
0019.366 (0) finding files: file-manager: adding to list (8)
0019.368 (0) finding files: revslider: adding to list (9)
0019.369 (0) finding files: download-manager-files: adding to list (10)
0019.371 (0) finding files: GeoIP.dat: adding to list (11)
0019.373 (0) finding files: 2017: adding to list (12)
0019.375 (0) finding files: GeoIPv6.dat: adding to list (13)
0019.376 (0) finding files: 2013: adding to list (14)
0019.378 (0) finding files: ninja-forms: adding to list (15)
0019.379 (0) finding files: wc-logs: adding to list (16)
0019.380 (0) Beginning creation of dump of uploads (split every: 400 MB)
0019.616 (0) Total entities for the zip file: 331 directories, 7444 files (0 skipped as non-modified), 920.3 MB
0019.622 (0) Zip: backup_2019-04-09-0252_Joyoung__5596c6a49ae2-uploads.zip.tmp: 100 files added (on-disk size: 0 KB)
0019.629 (0) Zip: backup_2019-04-09-0252_Joyoung__5596c6a49ae2-uploads.zip.tmp: 200 files added (on-disk size: 0 KB)
0019.635 (0) Zip: backup_2019-04-09-0252_Joyoung__5596c6a49ae2-uploads.zip.tmp: 300 files added (on-disk size: 0 KB)
0019.637 (0) Adding batch to zip file (UpdraftPlus_BinZip): over 25 MB added on this batch (25 MB, 7444 files batched, 312 (312) added so far); re-opening (prior size: 0 KB)
0020.839 (0) backup_2019-04-09-0252_Joyoung__5596c6a49ae2-uploads.zip.tmp: size is now: 25.20 MB
0020.847 (0) A useful amount of data was added after this amount of zip processing: 2.2 s (normalised: 2.2 s, rate: 11662.1 KB/s)
0020.852 (0) Performance is good - will increase the amount of data we attempt to batch (time=2.1975300312042, normalised_time=2.1951372224376, max_time=-1, data points known=0, old_max_bytes=26214400, new_max_bytes=71652194)
0020.859 (0) Zip: backup_2019-04-09-0252_Joyoung__5596c6a49ae2-uploads.zip.tmp: 400 files added (on-disk size: 25760.1 KB)
0020.865 (0) Zip: backup_2019-04-09-0252_Joyoung__5596c6a49ae2-uploads.zip.tmp: 500 files added (on-disk size: 25760.1 KB)
0020.870 (0) Zip: backup_2019-04-09-0252_Joyoung__5596c6a49ae2-uploads.zip.tmp: 600 files added (on-disk size: 25760.1 KB)
0020.875 (0) Zip: backup_2019-04-09-0252_Joyoung__5596c6a49ae2-uploads.zip.tmp: 700 files added (on-disk size: 25760.1 KB)
0020.880 (0) Zip: backup_2019-04-09-0252_Joyoung__5596c6a49ae2-uploads.zip.tmp: 800 files added (on-disk size: 25760.1 KB)
0020.885 (0) Adding batch to zip file (UpdraftPlus_BinZip): over 500 files added on this batch (40.5 MB, 7444 files batched, 501 (813) added so far); re-opening (prior size: 25760.1 KB)
0023.441 (0) backup_2019-04-09-0252_Joyoung__5596c6a49ae2-uploads.zip.tmp: size is now: 65.80 MB
0023.452 (0) Zip: backup_2019-04-09-0252_Joyoung__5596c6a49ae2-uploads.zip.tmp: 900 files added (on-disk size: 67362 KB)
0023.458 (0) Zip: backup_2019-04-09-0252_Joyoung__5596c6a49ae2-uploads.zip.tmp: 1000 files added (on-disk size: 67362 KB)
0023.465 (0) Zip: backup_2019-04-09-0252_Joyoung__5596c6a49ae2-uploads.zip.tmp: 1100 files added (on-disk size: 67362 KB)
0023.470 (0) Zip: backup_2019-04-09-0252_Joyoung__5596c6a49ae2-uploads.zip.tmp: 1200 files added (on-disk size: 67362 KB)
0023.478 (0) Zip: backup_2019-04-09-0252_Joyoung__5596c6a49ae2-uploads.zip.tmp: 1300 files added (on-disk size: 67362 KB)
0023.481 (0) Adding batch to zip file (UpdraftPlus_BinZip): over 500 files added on this batch (32.8 MB, 7444 files batched, 501 (1314) added so far); re-opening (prior size: 67362 KB)
0026.223 (0) backup_2019-04-09-0252_Joyoung__5596c6a49ae2-uploads.zip.tmp: size is now: 98.70 MB
0026.237 (0) Zip: backup_2019-04-09-0252_Joyoung__5596c6a49ae2-uploads.zip.tmp: 1400 files added (on-disk size: 101053.9 KB)
0026.242 (0) Zip: backup_2019-04-09-0252_Joyoung__5596c6a49ae2-uploads.zip.tmp: 1500 files added (on-disk size: 101053.9 KB)
0026.248 (0) Zip: backup_2019-04-09-0252_Joyoung__5596c6a49ae2-uploads.zip.tmp: 1600 files added (on-disk size: 101053.9 KB)
0026.253 (0) Zip: backup_2019-04-09-0252_Joyoung__5596c6a49ae2-uploads.zip.tmp: 1700 files added (on-disk size: 101053.9 KB)
0026.258 (0) Zip: backup_2019-04-09-0252_Joyoung__5596c6a49ae2-uploads.zip.tmp: 1800 files added (on-disk size: 101053.9 KB)
0026.261 (0) Adding batch to zip file (UpdraftPlus_BinZip): over 500 files added on this batch (54.4 MB, 7444 files batched, 501 (1815) added so far); re-opening (prior size: 101053.9 KB)
0030.206 (0) backup_2019-04-09-0252_Joyoung__5596c6a49ae2-uploads.zip.tmp: size is now: 153.20 MB
0030.219 (0) Zip: backup_2019-04-09-0252_Joyoung__5596c6a49ae2-uploads.zip.tmp: 1900 files added (on-disk size: 156846.2 KB)
0030.225 (0) Zip: backup_2019-04-09-0252_Joyoung__5596c6a49ae2-uploads.zip.tmp: 2000 files added (on-disk size: 156846.2 KB)
0030.229 (0) Zip: backup_2019-04-09-0252_Joyoung__5596c6a49ae2-uploads.zip.tmp: 2100 files added (on-disk size: 156846.2 KB)
0030.236 (0) Zip: backup_2019-04-09-0252_Joyoung__5596c6a49ae2-uploads.zip.tmp: 2200 files added (on-disk size: 156846.2 KB)
0030.241 (0) Zip: backup_2019-04-09-0252_Joyoung__5596c6a49ae2-uploads.zip.tmp: 2300 files added (on-disk size: 156846.2 KB)
0030.244 (0) Adding batch to zip file (UpdraftPlus_BinZip): over 500 files added on this batch (32.6 MB, 7444 files batched, 501 (2316) added so far); re-opening (prior size: 156846.2 KB)
0034.820 (0) backup_2019-04-09-0252_Joyoung__5596c6a49ae2-uploads.zip.tmp: size is now: 185.80 MB
0034.829 (0) Zip: backup_2019-04-09-0252_Joyoung__5596c6a49ae2-uploads.zip.tmp: 2400 files added (on-disk size: 190287 KB)
0034.834 (0) Zip: backup_2019-04-09-0252_Joyoung__5596c6a49ae2-uploads.zip.tmp: 2500 files added (on-disk size: 190287 KB)
0034.839 (0) Zip: backup_2019-04-09-0252_Joyoung__5596c6a49ae2-uploads.zip.tmp: 2600 files added (on-disk size: 190287 KB)
0034.844 (0) Zip: backup_2019-04-09-0252_Joyoung__5596c6a49ae2-uploads.zip.tmp: 2700 files added (on-disk size: 190287 KB)
0034.849 (0) Zip: backup_2019-04-09-0252_Joyoung__5596c6a49ae2-uploads.zip.tmp: 2800 files added (on-disk size: 190287 KB)
0034.851 (0) Adding batch to zip file (UpdraftPlus_BinZip): over 500 files added on this batch (42.3 MB, 7444 files batched, 501 (2817) added so far); re-opening (prior size: 190287 KB)
0037.559 (0) backup_2019-04-09-0252_Joyoung__5596c6a49ae2-uploads.zip.tmp: size is now: 228.30 MB
0037.570 (0) Zip: backup_2019-04-09-0252_Joyoung__5596c6a49ae2-uploads.zip.tmp: 2900 files added (on-disk size: 233733.8 KB)
0037.575 (0) Zip: backup_2019-04-09-0252_Joyoung__5596c6a49ae2-uploads.zip.tmp: 3000 files added (on-disk size: 233733.8 KB)
0037.580 (0) Zip: backup_2019-04-09-0252_Joyoung__5596c6a49ae2-uploads.zip.tmp: 3100 files added (on-disk size: 233733.8 KB)
0037.584 (0) Zip: backup_2019-04-09-0252_Joyoung__5596c6a49ae2-uploads.zip.tmp: 3200 files added (on-disk size: 233733.8 KB)
0037.589 (0) Zip: backup_2019-04-09-0252_Joyoung__5596c6a49ae2-uploads.zip.tmp: 3300 files added (on-disk size: 233733.8 KB)
0037.592 (0) Adding batch to zip file (UpdraftPlus_BinZip): over 500 files added on this batch (22.6 MB, 7444 files batched, 501 (3318) added so far); re-opening (prior size: 233733.8 KB)
0042.463 (0) Zip: backup_2019-04-09-0252_Joyoung__5596c6a49ae2-uploads.zip.tmp: 3400 files added (on-disk size: 256946.2 KB)
0042.470 (0) Zip: backup_2019-04-09-0252_Joyoung__5596c6a49ae2-uploads.zip.tmp: 3500 files added (on-disk size: 256946.2 KB)
0042.476 (0) Zip: backup_2019-04-09-0252_Joyoung__5596c6a49ae2-uploads.zip.tmp: 3600 files added (on-disk size: 256946.2 KB)
0042.481 (0) Zip: backup_2019-04-09-0252_Joyoung__5596c6a49ae2-uploads.zip.tmp: 3700 files added (on-disk size: 256946.2 KB)
0042.487 (0) Zip: backup_2019-04-09-0252_Joyoung__5596c6a49ae2-uploads.zip.tmp: 3800 files added (on-disk size: 256946.2 KB)
0042.492 (0) Adding batch to zip file (UpdraftPlus_BinZip): over 500 files added on this batch (55.6 MB, 7444 files batched, 501 (3819) added so far); re-opening (prior size: 256946.2 KB)
0047.971 (0) backup_2019-04-09-0252_Joyoung__5596c6a49ae2-uploads.zip.tmp: size is now: 306.60 MB
0047.984 (0) Zip: backup_2019-04-09-0252_Joyoung__5596c6a49ae2-uploads.zip.tmp: 3900 files added (on-disk size: 313955.3 KB)
0047.989 (0) Zip: backup_2019-04-09-0252_Joyoung__5596c6a49ae2-uploads.zip.tmp: 4000 files added (on-disk size: 313955.3 KB)
0047.993 (0) Zip: backup_2019-04-09-0252_Joyoung__5596c6a49ae2-uploads.zip.tmp: 4100 files added (on-disk size: 313955.3 KB)
0047.999 (0) Zip: backup_2019-04-09-0252_Joyoung__5596c6a49ae2-uploads.zip.tmp: 4200 files added (on-disk size: 313955.3 KB)
0048.004 (0) Zip: backup_2019-04-09-0252_Joyoung__5596c6a49ae2-uploads.zip.tmp: 4300 files added (on-disk size: 313955.3 KB)
0048.006 (0) Adding batch to zip file (UpdraftPlus_BinZip): over 500 files added on this batch (14.6 MB, 7444 files batched, 501 (4320) added so far); re-opening (prior size: 313955.3 KB)
0051.536 (0) Zip: backup_2019-04-09-0252_Joyoung__5596c6a49ae2-uploads.zip.tmp: 4400 files added (on-disk size: 328970.9 KB)
0051.541 (0) Zip: backup_2019-04-09-0252_Joyoung__5596c6a49ae2-uploads.zip.tmp: 4500 files added (on-disk size: 328970.9 KB)
0051.547 (0) Zip: backup_2019-04-09-0252_Joyoung__5596c6a49ae2-uploads.zip.tmp: 4600 files added (on-disk size: 328970.9 KB)
0051.552 (0) Zip: backup_2019-04-09-0252_Joyoung__5596c6a49ae2-uploads.zip.tmp: 4700 files added (on-disk size: 328970.9 KB)
0051.556 (0) Zip: backup_2019-04-09-0252_Joyoung__5596c6a49ae2-uploads.zip.tmp: 4800 files added (on-disk size: 328970.9 KB)
0051.559 (0) Adding batch to zip file (UpdraftPlus_BinZip): over 500 files added on this batch (1.3 MB, 7444 files batched, 501 (4821) added so far); re-opening (prior size: 328970.9 KB)
0055.686 (0) Zip: backup_2019-04-09-0252_Joyoung__5596c6a49ae2-uploads.zip.tmp: 4900 files added (on-disk size: 329769.5 KB)
0055.692 (0) Zip: backup_2019-04-09-0252_Joyoung__5596c6a49ae2-uploads.zip.tmp: 5000 files added (on-disk size: 329769.5 KB)
0055.698 (0) Zip: backup_2019-04-09-0252_Joyoung__5596c6a49ae2-uploads.zip.tmp: 5100 files added (on-disk size: 329769.5 KB)
0055.703 (0) Zip: backup_2019-04-09-0252_Joyoung__5596c6a49ae2-uploads.zip.tmp: 5200 files added (on-disk size: 329769.5 KB)
0055.708 (0) Zip: backup_2019-04-09-0252_Joyoung__5596c6a49ae2-uploads.zip.tmp: 5300 files added (on-disk size: 329769.5 KB)
0055.711 (0) Adding batch to zip file (UpdraftPlus_BinZip): over 500 files added on this batch (1.4 MB, 7444 files batched, 501 (5322) added so far); re-opening (prior size: 329769.5 KB)
0058.922 (0) Zip: backup_2019-04-09-0252_Joyoung__5596c6a49ae2-uploads.zip.tmp: 5400 files added (on-disk size: 330592.7 KB)
0058.929 (0) Zip: backup_2019-04-09-0252_Joyoung__5596c6a49ae2-uploads.zip.tmp: 5500 files added (on-disk size: 330592.7 KB)
0058.936 (0) Zip: backup_2019-04-09-0252_Joyoung__5596c6a49ae2-uploads.zip.tmp: 5600 files added (on-disk size: 330592.7 KB)
0058.942 (0) Adding batch to zip file (UpdraftPlus_BinZip): over 68.3 MB added on this batch (68.5 MB, 7444 files batched, 315 (5637) added so far); re-opening (prior size: 330592.7 KB)
0065.162 (0) backup_2019-04-09-0252_Joyoung__5596c6a49ae2-uploads.zip.tmp: size is now: 385.70 MB
0065.169 (0) A useful amount of data was added after this amount of zip processing: 6.5 s (normalised: 6.5 s, rate: 10757.7 KB/s)
0065.175 (0) Adding batch to zip file (UpdraftPlus_BinZip): possibly approaching split limit (15.5 MB, 10 (5647) files added so far); last ratio: 0.9178; re-opening (prior size: 394958.8 KB)
0069.166 (0) Zip size is at/near split limit (399.4 MB / 400 MB) - bumping index (from: 0)
0070.968 (0) Created uploads zip (0) - 408977 KB in 49.8 s (8214.7 KB/s) (SHA1 checksum: 5c33ca92f2ff46177537ee8981b83a0171c4dc75)
0070.973 (0) Adding batch to zip file (UpdraftPlus_BinZip): over 68.3 MB added on this batch (69.6 MB, 7444 files batched, 26 (5673) added so far); re-opening (prior size: 0 KB)
0074.448 (0) backup_2019-04-09-0252_Joyoung__5596c6a49ae2-uploads2.zip.tmp: size is now: 60.40 MB
0074.456 (0) A useful amount of data was added after this amount of zip processing: 5.8 s (normalised: 5.7 s, rate: 12274.4 KB/s)
0074.460 (0) Performance is good - will increase the amount of data we attempt to batch (time=5.8060169219971, normalised_time=5.7007018873658, max_time=-1, data points known=0, old_max_bytes=71652194, new_max_bytes=75414075)
0074.465 (0) Adding batch to zip file (UpdraftPlus_BinZip): over 71.9 MB added on this batch (72.8 MB, 7444 files batched, 23 (5696) added so far); re-opening (prior size: 61834 KB)
0078.028 (0) backup_2019-04-09-0252_Joyoung__5596c6a49ae2-uploads2.zip.tmp: size is now: 124.30 MB
0078.034 (0) A useful amount of data was added after this amount of zip processing: 4.4 s (normalised: 4.3 s, rate: 17010.1 KB/s)
0078.038 (0) Performance is good - will increase the amount of data we attempt to batch (time=4.3844060897827, normalised_time=4.3295723011509, max_time=-1, data points known=0, old_max_bytes=75414075, new_max_bytes=104510196)
0078.042 (0) Zip: backup_2019-04-09-0252_Joyoung__5596c6a49ae2-uploads2.zip.tmp: 5700 files added (on-disk size: 127307.5 KB)
0078.044 (0) Adding batch to zip file (UpdraftPlus_BinZip): over 99.7 MB added on this batch (103.5 MB, 7444 files batched, 30 (5726) added so far); re-opening (prior size: 127307.5 KB)
0084.862 (0) backup_2019-04-09-0252_Joyoung__5596c6a49ae2-uploads2.zip.tmp: size is now: 214.40 MB
0084.868 (0) A useful amount of data was added after this amount of zip processing: 7.2 s (normalised: 7 s, rate: 14677.6 KB/s)
0084.874 (0) Zip: backup_2019-04-09-0252_Joyoung__5596c6a49ae2-uploads2.zip.tmp: 5800 files added (on-disk size: 219563.8 KB)
0084.881 (0) Zip: backup_2019-04-09-0252_Joyoung__5596c6a49ae2-uploads2.zip.tmp: 5900 files added (on-disk size: 219563.8 KB)
0084.889 (0) Zip: backup_2019-04-09-0252_Joyoung__5596c6a49ae2-uploads2.zip.tmp: 6000 files added (on-disk size: 219563.8 KB)
0084.895 (0) Zip: backup_2019-04-09-0252_Joyoung__5596c6a49ae2-uploads2.zip.tmp: 6100 files added (on-disk size: 219563.8 KB)
0084.901 (0) Zip: backup_2019-04-09-0252_Joyoung__5596c6a49ae2-uploads2.zip.tmp: 6200 files added (on-disk size: 219563.8 KB)
0084.903 (0) Adding batch to zip file (UpdraftPlus_BinZip): over 99.7 MB added on this batch (99.7 MB, 7444 files batched, 477 (6203) added so far); re-opening (prior size: 219563.8 KB)
0091.810 (0) backup_2019-04-09-0252_Joyoung__5596c6a49ae2-uploads2.zip.tmp: size is now: 309.30 MB
0091.817 (0) A useful amount of data was added after this amount of zip processing: 7.2 s (normalised: 7.2 s, rate: 14246.2 KB/s)
0091.825 (0) Zip: backup_2019-04-09-0252_Joyoung__5596c6a49ae2-uploads2.zip.tmp: 6300 files added (on-disk size: 316685.6 KB)
0091.832 (0) Zip: backup_2019-04-09-0252_Joyoung__5596c6a49ae2-uploads2.zip.tmp: 6400 files added (on-disk size: 316685.6 KB)
0091.837 (0) Zip: backup_2019-04-09-0252_Joyoung__5596c6a49ae2-uploads2.zip.tmp: 6500 files added (on-disk size: 316685.6 KB)
0091.843 (0) Zip: backup_2019-04-09-0252_Joyoung__5596c6a49ae2-uploads2.zip.tmp: 6600 files added (on-disk size: 316685.6 KB)
0091.848 (0) Zip: backup_2019-04-09-0252_Joyoung__5596c6a49ae2-uploads2.zip.tmp: 6700 files added (on-disk size: 316685.6 KB)
0091.851 (0) Adding batch to zip file (UpdraftPlus_BinZip): over 500 files added on this batch (62.3 MB, 7444 files batched, 501 (6704) added so far); re-opening (prior size: 316685.6 KB)
0095.977 (0) backup_2019-04-09-0252_Joyoung__5596c6a49ae2-uploads2.zip.tmp: size is now: 371.60 MB
0095.988 (0) Zip: backup_2019-04-09-0252_Joyoung__5596c6a49ae2-uploads2.zip.tmp: 6800 files added (on-disk size: 380487.5 KB)
0095.993 (0) Zip: backup_2019-04-09-0252_Joyoung__5596c6a49ae2-uploads2.zip.tmp: 6900 files added (on-disk size: 380487.5 KB)
0095.996 (0) Adding batch to zip file (UpdraftPlus_BinZip): possibly approaching split limit (25.9 MB, 210 (6914) files added so far); last ratio: 1; re-opening (prior size: 380487.5 KB)
0100.827 (0) Zip size is at/near split limit (397.5 MB / 400 MB) - bumping index (from: 1)
0102.764 (0) Created uploads zip (1) - 407016.1 KB in 29.9 s (13630.6 KB/s) (SHA1 checksum: 200d6f593ac4b21fe4cd120844e01ceadc8256a8)
0102.773 (0) Zip: backup_2019-04-09-0252_Joyoung__5596c6a49ae2-uploads3.zip.tmp: 7000 files added (on-disk size: 0 KB)
0102.778 (0) Zip: backup_2019-04-09-0252_Joyoung__5596c6a49ae2-uploads3.zip.tmp: 7100 files added (on-disk size: 0 KB)
0102.784 (0) Zip: backup_2019-04-09-0252_Joyoung__5596c6a49ae2-uploads3.zip.tmp: 7200 files added (on-disk size: 0 KB)
0102.792 (0) Zip: backup_2019-04-09-0252_Joyoung__5596c6a49ae2-uploads3.zip.tmp: 7300 files added (on-disk size: 0 KB)
0102.797 (0) Zip: backup_2019-04-09-0252_Joyoung__5596c6a49ae2-uploads3.zip.tmp: 7400 files added (on-disk size: 0 KB)
0102.800 (0) Adding batch to zip file (UpdraftPlus_BinZip): over 500 files added on this batch (77.7 MB, 7444 files batched, 501 (7415) added so far); re-opening (prior size: 0 KB)
0105.679 (0) backup_2019-04-09-0252_Joyoung__5596c6a49ae2-uploads3.zip.tmp: size is now: 76.50 MB
0106.277 (0) Created uploads zip (2) - 80188.3 KB in 3.5 s (22841 KB/s) (SHA1 checksum: 545ec3714618817dadfd5af4894a8d6613727828)
0106.289 (0) Beginning backup of other directories found in the content directory (index: 0)
0106.294 (0) Exclusion option setting (others): upgrade,cache,updraft,backup*,*backups,mysql.sql,debug.log
0106.297 (0) Looking for candidates to back up in: /home/joyoung/web/global.joyoung.com/public_html/wp-content
0106.299 (0) finding files: uploads: skipping: this is the uploads directory
0106.301 (0) finding files: plugins: skipping: this is the plugins directory
0106.302 (0) finding files: updraft: skipping: this is the updraft directory
0106.304 (0) finding files: aiowps_backups: skipping: excluded by options (glob)
0106.306 (0) finding files: languages: adding to list (1)
0106.308 (0) finding files: themes: skipping: this is the themes directory
0106.309 (0) finding files: upgrade: skipping: excluded by options
0106.311 (0) finding files: tablepress-custom.min.css: adding to list (2)
0106.313 (0) finding files: tablepress-custom.css: adding to list (3)
0106.315 (0) finding files: mu-plugins: adding to list (4)
0106.316 (0) finding files: tablepress-combined.min.css: adding to list (5)
0106.318 (0) finding files: index.php: adding to list (6)
0106.325 (0) Total entities for the zip file: 4 directories, 28 files (0 skipped as non-modified), 3.3 MB
0106.571 (0) backup_2019-04-09-0252_Joyoung__5596c6a49ae2-others.zip.tmp: size is now: 1.20 MB
0106.587 (0) Created others zip (0) - 1195.6 KB in 0.3 s (4501.1 KB/s) (SHA1 checksum: 7351607e5050193390ad5ec3eaa9f2cee43d8586)
0106.597 (0) Saving backup status to database (elements: 10)
0106.604 (0) Beginning creation of database dump (WordPress DB)
0106.609 (0) Testing: /usr/bin/mysqldump
0106.772 (0) Working binary mysqldump found: /usr/bin/mysqldump
0106.806 (0) Table wp_pekw_options: Total expected rows (approximate): 14455
0106.971 (0) Table wp_pekw_options: binary mysqldump finished (writes: 33) in 0.16 seconds
0106.976 (0) Table wp_pekw_options: finishing file (backup_2019-04-09-0252_Joyoung__5596c6a49ae2-db-table-wp_pekw_options.table.gz - 398.1 KB)
0106.991 (0) Table wp_pekw_users: Total expected rows (approximate): 281
0107.014 (0) Table wp_pekw_users: Total rows added: 281 in 0.02 seconds
0107.018 (0) Table wp_pekw_users: finishing file (backup_2019-04-09-0252_Joyoung__5596c6a49ae2-db-table-wp_pekw_users.table.gz - 17.8 KB)
0107.028 (0) Table wp_pekw_usermeta: Total expected rows (approximate): 4310
0107.143 (0) Table wp_pekw_usermeta: Total rows added: 4206 in 0.11 seconds
0107.146 (0) Table wp_pekw_usermeta: finishing file (backup_2019-04-09-0252_Joyoung__5596c6a49ae2-db-table-wp_pekw_usermeta.table.gz - 63.5 KB)
0107.153 (0) Table wp_pekw_commentmeta: Total expected rows (approximate): 123
0107.162 (0) Table wp_pekw_commentmeta: Total rows added: 123 in 0.01 seconds
0107.165 (0) Table wp_pekw_commentmeta: finishing file (backup_2019-04-09-0252_Joyoung__5596c6a49ae2-db-table-wp_pekw_commentmeta.table.gz - 1.7 KB)
0107.172 (0) Table wp_pekw_comments: Total expected rows (approximate): 38
0107.183 (0) Table wp_pekw_comments: Total rows added: 38 in 0.01 seconds
0107.186 (0) Table wp_pekw_comments: finishing file (backup_2019-04-09-0252_Joyoung__5596c6a49ae2-db-table-wp_pekw_comments.table.gz - 10.1 KB)
0107.194 (0) Table wp_pekw_links: Total expected rows (approximate): 0
0107.199 (0) Table wp_pekw_links: Total rows added: 0 in 0.00 seconds
0107.201 (0) Table wp_pekw_links: finishing file (backup_2019-04-09-0252_Joyoung__5596c6a49ae2-db-table-wp_pekw_links.table.gz - 0.5 KB)
0107.209 (0) Table wp_pekw_postmeta: Total expected rows (approximate): 69061
0107.464 (0) Table wp_pekw_postmeta: binary mysqldump finished (writes: 37) in 0.25 seconds
0107.468 (0) Table wp_pekw_postmeta: finishing file (backup_2019-04-09-0252_Joyoung__5596c6a49ae2-db-table-wp_pekw_postmeta.table.gz - 458 KB)
0107.477 (0) Table wp_pekw_posts: Total expected rows (approximate): 10439
0108.032 (0) Table wp_pekw_posts: binary mysqldump finished (writes: 68) in 0.55 seconds
0108.036 (0) Table wp_pekw_posts: finishing file (backup_2019-04-09-0252_Joyoung__5596c6a49ae2-db-table-wp_pekw_posts.table.gz - 1275.2 KB)
0108.043 (0) Table wp_pekw_term_relationships: Total expected rows (approximate): 422
0108.057 (0) Table wp_pekw_term_relationships: Total rows added: 422 in 0.01 seconds
0108.060 (0) Table wp_pekw_term_relationships: finishing file (backup_2019-04-09-0252_Joyoung__5596c6a49ae2-db-table-wp_pekw_term_relationships.table.gz - 1.7 KB)
0108.067 (0) Table wp_pekw_term_taxonomy: Total expected rows (approximate): 56
0108.075 (0) Table wp_pekw_term_taxonomy: Total rows added: 56 in 0.01 seconds
0108.077 (0) Table wp_pekw_term_taxonomy: finishing file (backup_2019-04-09-0252_Joyoung__5596c6a49ae2-db-table-wp_pekw_term_taxonomy.table.gz - 0.9 KB)
0108.084 (0) Table wp_pekw_termmeta: Total expected rows (approximate): 50
0108.091 (0) Table wp_pekw_termmeta: Total rows added: 50 in 0.01 seconds
0108.094 (0) Table wp_pekw_termmeta: finishing file (backup_2019-04-09-0252_Joyoung__5596c6a49ae2-db-table-wp_pekw_termmeta.table.gz - 0.8 KB)
0108.101 (0) Table wp_pekw_terms: Total expected rows (approximate): 56
0108.108 (0) Table wp_pekw_terms: Total rows added: 56 in 0.00 seconds
0108.111 (0) Table wp_pekw_terms: finishing file (backup_2019-04-09-0252_Joyoung__5596c6a49ae2-db-table-wp_pekw_terms.table.gz - 1.5 KB)
0108.117 (0) Table wp_pekw_woocommerce_order_itemmeta: Total expected rows (approximate): 9
0108.123 (0) Table wp_pekw_woocommerce_order_itemmeta: Total rows added: 9 in 0.00 seconds
0108.125 (0) Table wp_pekw_woocommerce_order_itemmeta: finishing file (backup_2019-04-09-0252_Joyoung__5596c6a49ae2-db-table-wp_pekw_woocommerce_order_itemmeta.table.gz - 0.5 KB)
0108.133 (0) Table wp_pekw_woocommerce_payment_tokenmeta: Total expected rows (approximate): 0
0108.138 (0) Table wp_pekw_woocommerce_payment_tokenmeta: Total rows added: 0 in 0.00 seconds
0108.141 (0) Table wp_pekw_woocommerce_payment_tokenmeta: finishing file (backup_2019-04-09-0252_Joyoung__5596c6a49ae2-db-table-wp_pekw_woocommerce_payment_tokenmeta.table.gz - 0.4 KB)
0108.149 (0) Table wp_pekw_ahm_download_stats: Total expected rows (approximate): 66446
0108.445 (0) Table wp_pekw_ahm_download_stats: binary mysqldump finished (writes: 38) in 0.29 seconds
0108.449 (0) Table wp_pekw_ahm_download_stats: finishing file (backup_2019-04-09-0252_Joyoung__5596c6a49ae2-db-table-wp_pekw_ahm_download_stats.table.gz - 602.8 KB)
0108.458 (0) Table wp_pekw_ahm_emails: Total expected rows (approximate): 0
0108.462 (0) Table wp_pekw_ahm_emails: Total rows added: 0 in 0.00 seconds
0108.465 (0) Table wp_pekw_ahm_emails: finishing file (backup_2019-04-09-0252_Joyoung__5596c6a49ae2-db-table-wp_pekw_ahm_emails.table.gz - 0.3 KB)
0108.474 (0) Table wp_pekw_aiowps_events: Total expected rows (approximate): 0
0108.478 (0) Table wp_pekw_aiowps_events: Total rows added: 0 in 0.00 seconds
0108.480 (0) Table wp_pekw_aiowps_events: finishing file (backup_2019-04-09-0252_Joyoung__5596c6a49ae2-db-table-wp_pekw_aiowps_events.table.gz - 0.4 KB)
0108.487 (0) Table wp_pekw_aiowps_failed_logins: Total expected rows (approximate): 964
0108.518 (0) Table wp_pekw_aiowps_failed_logins: Total rows added: 964 in 0.03 seconds
0108.521 (0) Table wp_pekw_aiowps_failed_logins: finishing file (backup_2019-04-09-0252_Joyoung__5596c6a49ae2-db-table-wp_pekw_aiowps_failed_logins.table.gz - 12.1 KB)
0108.529 (0) Table wp_pekw_aiowps_global_meta: Total expected rows (approximate): 0
0108.542 (0) Table wp_pekw_aiowps_global_meta: Total rows added: 0 in 0.01 seconds
0108.546 (0) Table wp_pekw_aiowps_global_meta: finishing file (backup_2019-04-09-0252_Joyoung__5596c6a49ae2-db-table-wp_pekw_aiowps_global_meta.table.gz - 0.4 KB)
0108.555 (0) Table wp_pekw_aiowps_login_activity: Total expected rows (approximate): 372
0108.584 (0) Table wp_pekw_aiowps_login_activity: Total rows added: 372 in 0.03 seconds
0108.588 (0) Table wp_pekw_aiowps_login_activity: finishing file (backup_2019-04-09-0252_Joyoung__5596c6a49ae2-db-table-wp_pekw_aiowps_login_activity.table.gz - 7.8 KB)
0108.597 (0) Table wp_pekw_aiowps_login_lockdown: Total expected rows (approximate): 684
0108.633 (0) Table wp_pekw_aiowps_login_lockdown: Total rows added: 684 in 0.03 seconds
0108.637 (0) Table wp_pekw_aiowps_login_lockdown: finishing file (backup_2019-04-09-0252_Joyoung__5596c6a49ae2-db-table-wp_pekw_aiowps_login_lockdown.table.gz - 13.6 KB)
0108.645 (0) Table wp_pekw_aiowps_permanent_block: Total expected rows (approximate): 6
0108.650 (0) Table wp_pekw_aiowps_permanent_block: Total rows added: 6 in 0.00 seconds
0108.652 (0) Table wp_pekw_aiowps_permanent_block: finishing file (backup_2019-04-09-0252_Joyoung__5596c6a49ae2-db-table-wp_pekw_aiowps_permanent_block.table.gz - 0.5 KB)
0108.660 (0) Table wp_pekw_blc_filters: Total expected rows (approximate): 0
0108.664 (0) Table wp_pekw_blc_filters: Total rows added: 0 in 0.00 seconds
0108.666 (0) Table wp_pekw_blc_filters: finishing file (backup_2019-04-09-0252_Joyoung__5596c6a49ae2-db-table-wp_pekw_blc_filters.table.gz - 0.3 KB)
0108.674 (0) Table wp_pekw_blc_instances: Total expected rows (approximate): 264
0108.701 (0) Table wp_pekw_blc_instances: Total rows added: 264 in 0.02 seconds
0108.706 (0) Table wp_pekw_blc_instances: finishing file (backup_2019-04-09-0252_Joyoung__5596c6a49ae2-db-table-wp_pekw_blc_instances.table.gz - 5 KB)
0108.715 (0) Table wp_pekw_blc_links: Total expected rows (approximate): 123
0108.739 (0) Table wp_pekw_blc_links: Total rows added: 123 in 0.02 seconds
0108.742 (0) Table wp_pekw_blc_links: finishing file (backup_2019-04-09-0252_Joyoung__5596c6a49ae2-db-table-wp_pekw_blc_links.table.gz - 34 KB)
0108.753 (0) Table wp_pekw_blc_synch: Total expected rows (approximate): 67
0108.764 (0) Table wp_pekw_blc_synch: Total rows added: 67 in 0.00 seconds
0108.767 (0) Table wp_pekw_blc_synch: finishing file (backup_2019-04-09-0252_Joyoung__5596c6a49ae2-db-table-wp_pekw_blc_synch.table.gz - 0.9 KB)
0108.782 (0) Table wp_pekw_nf_objectmeta: Total expected rows (approximate): 281
0108.795 (0) Table wp_pekw_nf_objectmeta: Total rows added: 282 in 0.01 seconds
0108.799 (0) Table wp_pekw_nf_objectmeta: finishing file (backup_2019-04-09-0252_Joyoung__5596c6a49ae2-db-table-wp_pekw_nf_objectmeta.table.gz - 3.8 KB)
0108.807 (0) Table wp_pekw_nf_objects: Total expected rows (approximate): 15
0108.813 (0) Table wp_pekw_nf_objects: Total rows added: 16 in 0.00 seconds
0108.816 (0) Table wp_pekw_nf_objects: finishing file (backup_2019-04-09-0252_Joyoung__5596c6a49ae2-db-table-wp_pekw_nf_objects.table.gz - 0.4 KB)
0108.824 (0) Table wp_pekw_nf_relationships: Total expected rows (approximate): 12
0108.830 (0) Table wp_pekw_nf_relationships: Total rows added: 12 in 0.00 seconds
0108.832 (0) Table wp_pekw_nf_relationships: finishing file (backup_2019-04-09-0252_Joyoung__5596c6a49ae2-db-table-wp_pekw_nf_relationships.table.gz - 0.4 KB)
0108.845 (0) Table wp_pekw_ninja_forms_fav_fields: Total expected rows (approximate): 17
0108.853 (0) Table wp_pekw_ninja_forms_fav_fields: Total rows added: 17 in 0.01 seconds
0108.856 (0) Table wp_pekw_ninja_forms_fav_fields: finishing file (backup_2019-04-09-0252_Joyoung__5596c6a49ae2-db-table-wp_pekw_ninja_forms_fav_fields.table.gz - 2.6 KB)
0108.863 (0) Table wp_pekw_ninja_forms_fields: Total expected rows (approximate): 43
0108.874 (0) Table wp_pekw_ninja_forms_fields: Total rows added: 42 in 0.01 seconds
0108.876 (0) Table wp_pekw_ninja_forms_fields: finishing file (backup_2019-04-09-0252_Joyoung__5596c6a49ae2-db-table-wp_pekw_ninja_forms_fields.table.gz - 5.9 KB)
0108.885 (0) Table wp_pekw_ninja_forms_uploads: Total expected rows (approximate): 170
0108.897 (0) Table wp_pekw_ninja_forms_uploads: Total rows added: 170 in 0.01 seconds
0108.900 (0) Table wp_pekw_ninja_forms_uploads: finishing file (backup_2019-04-09-0252_Joyoung__5596c6a49ae2-db-table-wp_pekw_ninja_forms_uploads.table.gz - 7.1 KB)
0108.907 (0) Table wp_pekw_podsrel: Total expected rows (approximate): 0
0108.911 (0) Table wp_pekw_podsrel: Total rows added: 0 in 0.00 seconds
0108.914 (0) Table wp_pekw_podsrel: finishing file (backup_2019-04-09-0252_Joyoung__5596c6a49ae2-db-table-wp_pekw_podsrel.table.gz - 0.4 KB)
0108.921 (0) Table wp_pekw_revslider_css: Total expected rows (approximate): 189
0108.937 (0) Table wp_pekw_revslider_css: Total rows added: 189 in 0.01 seconds
0108.940 (0) Table wp_pekw_revslider_css: finishing file (backup_2019-04-09-0252_Joyoung__5596c6a49ae2-db-table-wp_pekw_revslider_css.table.gz - 6.1 KB)
0108.948 (0) Table wp_pekw_revslider_layer_animations: Total expected rows (approximate): 0
0108.952 (0) Table wp_pekw_revslider_layer_animations: Total rows added: 0 in 0.00 seconds
0108.954 (0) Table wp_pekw_revslider_layer_animations: finishing file (backup_2019-04-09-0252_Joyoung__5596c6a49ae2-db-table-wp_pekw_revslider_layer_animations.table.gz - 0.3 KB)
0108.961 (0) Table wp_pekw_revslider_navigations: Total expected rows (approximate): 0
0108.965 (0) Table wp_pekw_revslider_navigations: Total rows added: 0 in 0.00 seconds
0108.967 (0) Table wp_pekw_revslider_navigations: finishing file (backup_2019-04-09-0252_Joyoung__5596c6a49ae2-db-table-wp_pekw_revslider_navigations.table.gz - 0.3 KB)
0108.974 (0) Table wp_pekw_revslider_sliders: Total expected rows (approximate): 0
0108.980 (0) Table wp_pekw_revslider_sliders: Total rows added: 1 in 0.00 seconds
0108.982 (0) Table wp_pekw_revslider_sliders: finishing file (backup_2019-04-09-0252_Joyoung__5596c6a49ae2-db-table-wp_pekw_revslider_sliders.table.gz - 3 KB)
0108.990 (0) Table wp_pekw_revslider_slides: Total expected rows (approximate): 8
0108.996 (0) Table wp_pekw_revslider_slides: Total rows added: 8 in 0.00 seconds
0108.999 (0) Table wp_pekw_revslider_slides: finishing file (backup_2019-04-09-0252_Joyoung__5596c6a49ae2-db-table-wp_pekw_revslider_slides.table.gz - 2.7 KB)
0109.005 (0) Table wp_pekw_revslider_static_slides: Total expected rows (approximate): 0
0109.009 (0) Table wp_pekw_revslider_static_slides: Total rows added: 0 in 0.00 seconds
0109.012 (0) Table wp_pekw_revslider_static_slides: finishing file (backup_2019-04-09-0252_Joyoung__5596c6a49ae2-db-table-wp_pekw_revslider_static_slides.table.gz - 0.3 KB)
0109.020 (0) Table wp_pekw_social_users: Total expected rows (approximate): 43
0109.025 (0) Table wp_pekw_social_users: Total rows added: 43 in 0.00 seconds
0109.027 (0) Table wp_pekw_social_users: finishing file (backup_2019-04-09-0252_Joyoung__5596c6a49ae2-db-table-wp_pekw_social_users.table.gz - 0.9 KB)
0109.035 (0) Table wp_pekw_taxonomymeta: Total expected rows (approximate): 0
0109.039 (0) Table wp_pekw_taxonomymeta: Total rows added: 0 in 0.00 seconds
0109.041 (0) Table wp_pekw_taxonomymeta: finishing file (backup_2019-04-09-0252_Joyoung__5596c6a49ae2-db-table-wp_pekw_taxonomymeta.table.gz - 0.4 KB)
0109.048 (0) Table wp_pekw_woocommerce_api_keys: Total expected rows (approximate): 0
0109.053 (0) Table wp_pekw_woocommerce_api_keys: Total rows added: 0 in 0.00 seconds
0109.055 (0) Table wp_pekw_woocommerce_api_keys: finishing file (backup_2019-04-09-0252_Joyoung__5596c6a49ae2-db-table-wp_pekw_woocommerce_api_keys.table.gz - 0.4 KB)
0109.062 (0) Table wp_pekw_woocommerce_attribute_taxonomies: Total expected rows (approximate): 0
0109.067 (0) Table wp_pekw_woocommerce_attribute_taxonomies: Total rows added: 0 in 0.00 seconds
0109.069 (0) Table wp_pekw_woocommerce_attribute_taxonomies: finishing file (backup_2019-04-09-0252_Joyoung__5596c6a49ae2-db-table-wp_pekw_woocommerce_attribute_taxonomies.table.gz - 0.4 KB)
0109.078 (0) Table wp_pekw_woocommerce_downloadable_product_permissions: Total expected rows (approximate): 0
0109.083 (0) Table wp_pekw_woocommerce_downloadable_product_permissions: Total rows added: 0 in 0.00 seconds
0109.085 (0) Table wp_pekw_woocommerce_downloadable_product_permissions: finishing file (backup_2019-04-09-0252_Joyoung__5596c6a49ae2-db-table-wp_pekw_woocommerce_downloadable_product_permissions.table.gz - 0.5 KB)
0109.092 (0) Table wp_pekw_woocommerce_order_items: Total expected rows (approximate): 2
0109.098 (0) Table wp_pekw_woocommerce_order_items: Total rows added: 1 in 0.00 seconds
0109.101 (0) Table wp_pekw_woocommerce_order_items: finishing file (backup_2019-04-09-0252_Joyoung__5596c6a49ae2-db-table-wp_pekw_woocommerce_order_items.table.gz - 0.4 KB)
0109.107 (0) Table wp_pekw_woocommerce_payment_tokens: Total expected rows (approximate): 0
0109.111 (0) Table wp_pekw_woocommerce_payment_tokens: Total rows added: 0 in 0.00 seconds
0109.114 (0) Table wp_pekw_woocommerce_payment_tokens: finishing file (backup_2019-04-09-0252_Joyoung__5596c6a49ae2-db-table-wp_pekw_woocommerce_payment_tokens.table.gz - 0.4 KB)
0109.121 (0) Table wp_pekw_woocommerce_sessions: Total expected rows (approximate): 0
0109.125 (0) Table wp_pekw_woocommerce_sessions: Total rows added: 0 in 0.00 seconds
0109.127 (0) Table wp_pekw_woocommerce_sessions: finishing file (backup_2019-04-09-0252_Joyoung__5596c6a49ae2-db-table-wp_pekw_woocommerce_sessions.table.gz - 0.4 KB)
0109.135 (0) Table wp_pekw_woocommerce_shipping_zone_locations: Total expected rows (approximate): 0
0109.139 (0) Table wp_pekw_woocommerce_shipping_zone_locations: Total rows added: 0 in 0.00 seconds
0109.141 (0) Table wp_pekw_woocommerce_shipping_zone_locations: finishing file (backup_2019-04-09-0252_Joyoung__5596c6a49ae2-db-table-wp_pekw_woocommerce_shipping_zone_locations.table.gz - 0.4 KB)
0109.149 (0) Table wp_pekw_woocommerce_shipping_zone_methods: Total expected rows (approximate): 0
0109.155 (0) Table wp_pekw_woocommerce_shipping_zone_methods: Total rows added: 0 in 0.00 seconds
0109.157 (0) Table wp_pekw_woocommerce_shipping_zone_methods: finishing file (backup_2019-04-09-0252_Joyoung__5596c6a49ae2-db-table-wp_pekw_woocommerce_shipping_zone_methods.table.gz - 0.4 KB)
0109.164 (0) Table wp_pekw_woocommerce_shipping_zones: Total expected rows (approximate): 0
0109.168 (0) Table wp_pekw_woocommerce_shipping_zones: Total rows added: 0 in 0.00 seconds
0109.171 (0) Table wp_pekw_woocommerce_shipping_zones: finishing file (backup_2019-04-09-0252_Joyoung__5596c6a49ae2-db-table-wp_pekw_woocommerce_shipping_zones.table.gz - 0.3 KB)
0109.178 (0) Table wp_pekw_woocommerce_tax_rate_locations: Total expected rows (approximate): 0
0109.183 (0) Table wp_pekw_woocommerce_tax_rate_locations: Total rows added: 0 in 0.00 seconds
0109.186 (0) Table wp_pekw_woocommerce_tax_rate_locations: finishing file (backup_2019-04-09-0252_Joyoung__5596c6a49ae2-db-table-wp_pekw_woocommerce_tax_rate_locations.table.gz - 0.4 KB)
0109.194 (0) Table wp_pekw_woocommerce_tax_rates: Total expected rows (approximate): 0
0109.199 (0) Table wp_pekw_woocommerce_tax_rates: Total rows added: 0 in 0.00 seconds
0109.201 (0) Table wp_pekw_woocommerce_tax_rates: finishing file (backup_2019-04-09-0252_Joyoung__5596c6a49ae2-db-table-wp_pekw_woocommerce_tax_rates.table.gz - 0.4 KB)
0109.208 (0) Table wp_pekw_yith_wcwl: Total expected rows (approximate): 26
0109.213 (0) Table wp_pekw_yith_wcwl: Total rows added: 26 in 0.00 seconds
0109.215 (0) Table wp_pekw_yith_wcwl: finishing file (backup_2019-04-09-0252_Joyoung__5596c6a49ae2-db-table-wp_pekw_yith_wcwl.table.gz - 0.8 KB)
0109.223 (0) Table wp_pekw_yith_wcwl_lists: Total expected rows (approximate): 85
0109.230 (0) Table wp_pekw_yith_wcwl_lists: Total rows added: 85 in 0.00 seconds
0109.232 (0) Table wp_pekw_yith_wcwl_lists: finishing file (backup_2019-04-09-0252_Joyoung__5596c6a49ae2-db-table-wp_pekw_yith_wcwl_lists.table.gz - 1.7 KB)
0109.239 (0) backup_2019-04-09-0252_Joyoung__5596c6a49ae2-db-table-wp_pekw_options.table.gz (1/54): adding to final database dump
0109.336 (0) backup_2019-04-09-0252_Joyoung__5596c6a49ae2-db-table-wp_pekw_users.table.gz (2/54): adding to final database dump
0109.344 (0) backup_2019-04-09-0252_Joyoung__5596c6a49ae2-db-table-wp_pekw_usermeta.table.gz (3/54): adding to final database dump
0109.385 (0) backup_2019-04-09-0252_Joyoung__5596c6a49ae2-db-table-wp_pekw_commentmeta.table.gz (4/54): adding to final database dump
0109.389 (0) backup_2019-04-09-0252_Joyoung__5596c6a49ae2-db-table-wp_pekw_comments.table.gz (5/54): adding to final database dump
0109.396 (0) backup_2019-04-09-0252_Joyoung__5596c6a49ae2-db-table-wp_pekw_links.table.gz (6/54): adding to final database dump
0109.399 (0) backup_2019-04-09-0252_Joyoung__5596c6a49ae2-db-table-wp_pekw_postmeta.table.gz (7/54): adding to final database dump
0109.540 (0) backup_2019-04-09-0252_Joyoung__5596c6a49ae2-db-table-wp_pekw_posts.table.gz (8/54): adding to final database dump
0109.906 (0) backup_2019-04-09-0252_Joyoung__5596c6a49ae2-db-table-wp_pekw_term_relationships.table.gz (9/54): adding to final database dump
0109.911 (0) backup_2019-04-09-0252_Joyoung__5596c6a49ae2-db-table-wp_pekw_term_taxonomy.table.gz (10/54): adding to final database dump
0109.914 (0) backup_2019-04-09-0252_Joyoung__5596c6a49ae2-db-table-wp_pekw_termmeta.table.gz (11/54): adding to final database dump
0109.917 (0) backup_2019-04-09-0252_Joyoung__5596c6a49ae2-db-table-wp_pekw_terms.table.gz (12/54): adding to final database dump
0109.920 (0) backup_2019-04-09-0252_Joyoung__5596c6a49ae2-db-table-wp_pekw_woocommerce_order_itemmeta.table.gz (13/54): adding to final database dump
0109.923 (0) backup_2019-04-09-0252_Joyoung__5596c6a49ae2-db-table-wp_pekw_woocommerce_payment_tokenmeta.table.gz (14/54): adding to final database dump
0109.925 (0) backup_2019-04-09-0252_Joyoung__5596c6a49ae2-db-table-wp_pekw_ahm_download_stats.table.gz (15/54): adding to final database dump
0110.103 (0) backup_2019-04-09-0252_Joyoung__5596c6a49ae2-db-table-wp_pekw_ahm_emails.table.gz (16/54): adding to final database dump
0110.106 (0) backup_2019-04-09-0252_Joyoung__5596c6a49ae2-db-table-wp_pekw_aiowps_events.table.gz (17/54): adding to final database dump
0110.108 (0) backup_2019-04-09-0252_Joyoung__5596c6a49ae2-db-table-wp_pekw_aiowps_failed_logins.table.gz (18/54): adding to final database dump
0110.121 (0) backup_2019-04-09-0252_Joyoung__5596c6a49ae2-db-table-wp_pekw_aiowps_global_meta.table.gz (19/54): adding to final database dump
0110.127 (0) backup_2019-04-09-0252_Joyoung__5596c6a49ae2-db-table-wp_pekw_aiowps_login_activity.table.gz (20/54): adding to final database dump
0110.134 (0) backup_2019-04-09-0252_Joyoung__5596c6a49ae2-db-table-wp_pekw_aiowps_login_lockdown.table.gz (21/54): adding to final database dump
0110.149 (0) backup_2019-04-09-0252_Joyoung__5596c6a49ae2-db-table-wp_pekw_aiowps_permanent_block.table.gz (22/54): adding to final database dump
0110.152 (0) backup_2019-04-09-0252_Joyoung__5596c6a49ae2-db-table-wp_pekw_blc_filters.table.gz (23/54): adding to final database dump
0110.155 (0) backup_2019-04-09-0252_Joyoung__5596c6a49ae2-db-table-wp_pekw_blc_instances.table.gz (24/54): adding to final database dump
0110.162 (0) backup_2019-04-09-0252_Joyoung__5596c6a49ae2-db-table-wp_pekw_blc_links.table.gz (25/54): adding to final database dump
0110.172 (0) backup_2019-04-09-0252_Joyoung__5596c6a49ae2-db-table-wp_pekw_blc_synch.table.gz (26/54): adding to final database dump
0110.175 (0) backup_2019-04-09-0252_Joyoung__5596c6a49ae2-db-table-wp_pekw_nf_objectmeta.table.gz (27/54): adding to final database dump
0110.183 (0) backup_2019-04-09-0252_Joyoung__5596c6a49ae2-db-table-wp_pekw_nf_objects.table.gz (28/54): adding to final database dump
0110.185 (0) backup_2019-04-09-0252_Joyoung__5596c6a49ae2-db-table-wp_pekw_nf_relationships.table.gz (29/54): adding to final database dump
0110.187 (0) backup_2019-04-09-0252_Joyoung__5596c6a49ae2-db-table-wp_pekw_ninja_forms_fav_fields.table.gz (30/54): adding to final database dump
0110.190 (0) backup_2019-04-09-0252_Joyoung__5596c6a49ae2-db-table-wp_pekw_ninja_forms_fields.table.gz (31/54): adding to final database dump
0110.194 (0) backup_2019-04-09-0252_Joyoung__5596c6a49ae2-db-table-wp_pekw_ninja_forms_uploads.table.gz (32/54): adding to final database dump
0110.200 (0) backup_2019-04-09-0252_Joyoung__5596c6a49ae2-db-table-wp_pekw_podsrel.table.gz (33/54): adding to final database dump
0110.204 (0) backup_2019-04-09-0252_Joyoung__5596c6a49ae2-db-table-wp_pekw_revslider_css.table.gz (34/54): adding to final database dump
0110.213 (0) backup_2019-04-09-0252_Joyoung__5596c6a49ae2-db-table-wp_pekw_revslider_layer_animations.table.gz (35/54): adding to final database dump
0110.216 (0) backup_2019-04-09-0252_Joyoung__5596c6a49ae2-db-table-wp_pekw_revslider_navigations.table.gz (36/54): adding to final database dump
0110.219 (0) backup_2019-04-09-0252_Joyoung__5596c6a49ae2-db-table-wp_pekw_revslider_sliders.table.gz (37/54): adding to final database dump
0110.222 (0) backup_2019-04-09-0252_Joyoung__5596c6a49ae2-db-table-wp_pekw_revslider_slides.table.gz (38/54): adding to final database dump
0110.226 (0) backup_2019-04-09-0252_Joyoung__5596c6a49ae2-db-table-wp_pekw_revslider_static_slides.table.gz (39/54): adding to final database dump
0110.231 (0) backup_2019-04-09-0252_Joyoung__5596c6a49ae2-db-table-wp_pekw_social_users.table.gz (40/54): adding to final database dump
0110.235 (0) backup_2019-04-09-0252_Joyoung__5596c6a49ae2-db-table-wp_pekw_taxonomymeta.table.gz (41/54): adding to final database dump
0110.238 (0) backup_2019-04-09-0252_Joyoung__5596c6a49ae2-db-table-wp_pekw_woocommerce_api_keys.table.gz (42/54): adding to final database dump
0110.240 (0) backup_2019-04-09-0252_Joyoung__5596c6a49ae2-db-table-wp_pekw_woocommerce_attribute_taxonomies.table.gz (43/54): adding to final database dump
0110.242 (0) backup_2019-04-09-0252_Joyoung__5596c6a49ae2-db-table-wp_pekw_woocommerce_downloadable_product_permissions.table.gz (44/54): adding to final database dump
0110.247 (0) backup_2019-04-09-0252_Joyoung__5596c6a49ae2-db-table-wp_pekw_woocommerce_order_items.table.gz (45/54): adding to final database dump
0110.250 (0) backup_2019-04-09-0252_Joyoung__5596c6a49ae2-db-table-wp_pekw_woocommerce_payment_tokens.table.gz (46/54): adding to final database dump
0110.252 (0) backup_2019-04-09-0252_Joyoung__5596c6a49ae2-db-table-wp_pekw_woocommerce_sessions.table.gz (47/54): adding to final database dump
0110.254 (0) backup_2019-04-09-0252_Joyoung__5596c6a49ae2-db-table-wp_pekw_woocommerce_shipping_zone_locations.table.gz (48/54): adding to final database dump
0110.256 (0) backup_2019-04-09-0252_Joyoung__5596c6a49ae2-db-table-wp_pekw_woocommerce_shipping_zone_methods.table.gz (49/54): adding to final database dump
0110.258 (0) backup_2019-04-09-0252_Joyoung__5596c6a49ae2-db-table-wp_pekw_woocommerce_shipping_zones.table.gz (50/54): adding to final database dump
0110.260 (0) backup_2019-04-09-0252_Joyoung__5596c6a49ae2-db-table-wp_pekw_woocommerce_tax_rate_locations.table.gz (51/54): adding to final database dump
0110.263 (0) backup_2019-04-09-0252_Joyoung__5596c6a49ae2-db-table-wp_pekw_woocommerce_tax_rates.table.gz (52/54): adding to final database dump
0110.271 (0) backup_2019-04-09-0252_Joyoung__5596c6a49ae2-db-table-wp_pekw_yith_wcwl.table.gz (53/54): adding to final database dump
0110.274 (0) backup_2019-04-09-0252_Joyoung__5596c6a49ae2-db-table-wp_pekw_yith_wcwl_lists.table.gz (54/54): adding to final database dump
0110.277 (0) backup_2019-04-09-0252_Joyoung__5596c6a49ae2-db.gz: finished writing out complete database file (2912 KB)
0110.309 (0) Total database tables backed up: 54 (backup_2019-04-09-0252_Joyoung__5596c6a49ae2-db.gz, size: 3011005, checksum (SHA1): c78354d0c9cf1cf59a0efa306a2c638a3916298b)
0110.323 (0) backup_2019-04-09-0252_Joyoung__5596c6a49ae2-plugins.zip: plugins: This file has not yet been successfully uploaded: will queue
0110.325 (0) backup_2019-04-09-0252_Joyoung__5596c6a49ae2-themes.zip: themes: This file has not yet been successfully uploaded: will queue
0110.327 (0) backup_2019-04-09-0252_Joyoung__5596c6a49ae2-uploads.zip: uploads: This file has not yet been successfully uploaded: will queue
0110.328 (0) backup_2019-04-09-0252_Joyoung__5596c6a49ae2-uploads2.zip: uploads: This file has not yet been successfully uploaded: will queue
0110.330 (0) backup_2019-04-09-0252_Joyoung__5596c6a49ae2-uploads3.zip: uploads: This file has not yet been successfully uploaded: will queue
0110.332 (0) backup_2019-04-09-0252_Joyoung__5596c6a49ae2-others.zip: others: This file has not yet been successfully uploaded: will queue
0110.334 (0) backup_2019-04-09-0252_Joyoung__5596c6a49ae2-db.gz: db: This file has not yet been successfully uploaded: will queue
0110.336 (0) Saving backup history. Total backup size: 927.1 MB
0110.342 (0) Requesting upload of the files that have not yet been successfully uploaded (7)
0110.349 (0) Cloud backup selection (1/1):  (last)
0110.351 (0) No remote despatch: user chose no remote backup service
0110.357 (0) Recording as successfully uploaded: backup_2019-04-09-0252_Joyoung__5596c6a49ae2-plugins.zip (b2673040d310fa98e2fbb9cfa2419655)
0110.370 (0) Recording as successfully uploaded: backup_2019-04-09-0252_Joyoung__5596c6a49ae2-themes.zip (d32367e74cb3a08c3da0bb1544282202)
0110.383 (0) Recording as successfully uploaded: backup_2019-04-09-0252_Joyoung__5596c6a49ae2-uploads.zip (7632f47dd6b587039bcdcddfbace8a5c)
0110.391 (0) Recording as successfully uploaded: backup_2019-04-09-0252_Joyoung__5596c6a49ae2-uploads2.zip (38dab8d5436b3141812deb8d14be1993)
0110.400 (0) Recording as successfully uploaded: backup_2019-04-09-0252_Joyoung__5596c6a49ae2-uploads3.zip (a81c81c1d214b17e1cad15a3503659dd)
0110.408 (0) Recording as successfully uploaded: backup_2019-04-09-0252_Joyoung__5596c6a49ae2-others.zip (07254ab5eb9bc0e169be4b97fb4635b7)
0110.417 (0) Recording as successfully uploaded: backup_2019-04-09-0252_Joyoung__5596c6a49ae2-db.gz (48a02c8daa480fc80b584c03117a4ce0)
0110.426 (0) Retain: beginning examination of existing backup sets; user setting: retain_files=2, retain_db=14
0110.429 (0) Number of backup sets in history: 15; groups (db): 1
0110.431 (0) Examining (for databases) backup set with group_id=0, nonce=5596c6a49ae2, datestamp=1554749558 (Apr 08 2019 18:52:38)
0110.433 (0) This backup set is the backup set just made, so will not be deleted.
0110.435 (0) Examining (for databases) backup set with group_id=0, nonce=86b13abcacd9, datestamp=1554663174 (Apr 07 2019 18:52:54)
0110.436 (0) This backup set remains non-empty (f=0/d=1); will retain in history
0110.438 (0) Examining (for databases) backup set with group_id=0, nonce=e4d7ef025a6a, datestamp=1554576742 (Apr 06 2019 18:52:22)
0110.440 (0) This backup set remains non-empty (f=0/d=1); will retain in history
0110.442 (0) Examining (for databases) backup set with group_id=0, nonce=2185ba4777d6, datestamp=1554490346 (Apr 05 2019 18:52:26)
0110.443 (0) This backup set remains non-empty (f=0/d=1); will retain in history
0110.445 (0) Examining (for databases) backup set with group_id=0, nonce=59a8c6159a35, datestamp=1554403953 (Apr 04 2019 18:52:33)
0110.447 (0) This backup set remains non-empty (f=0/d=1); will retain in history
0110.449 (0) Examining (for databases) backup set with group_id=0, nonce=c7a047e7ea03, datestamp=1554317545 (Apr 03 2019 18:52:25)
0110.450 (0) This backup set remains non-empty (f=0/d=1); will retain in history
0110.452 (0) Examining (for databases) backup set with group_id=0, nonce=a5875dfc8981, datestamp=1554231169 (Apr 02 2019 18:52:49)
0110.454 (0) This backup set remains non-empty (f=0/d=1); will retain in history
0110.455 (0) Examining (for databases) backup set with group_id=0, nonce=ab60807fb35f, datestamp=1554144818 (Apr 01 2019 18:53:38)
0110.457 (0) This backup set remains non-empty (f=1/d=1); will retain in history
0110.459 (0) Examining (for databases) backup set with group_id=0, nonce=e817c8a43cef, datestamp=1554058345 (Mar 31 2019 18:52:25)
0110.461 (0) This backup set remains non-empty (f=0/d=1); will retain in history
0110.463 (0) Examining (for databases) backup set with group_id=0, nonce=ff9092df28df, datestamp=1553971943 (Mar 30 2019 18:52:23)
0110.465 (0) This backup set remains non-empty (f=0/d=1); will retain in history
0110.467 (0) Examining (for databases) backup set with group_id=0, nonce=1843606c22e6, datestamp=1553885571 (Mar 29 2019 18:52:51)
0110.469 (0) This backup set remains non-empty (f=0/d=1); will retain in history
0110.471 (0) Examining (for databases) backup set with group_id=0, nonce=2f96141746c2, datestamp=1553799163 (Mar 28 2019 18:52:43)
0110.473 (0) This backup set remains non-empty (f=0/d=1); will retain in history
0110.475 (0) Examining (for databases) backup set with group_id=0, nonce=f767c126e03f, datestamp=1553712754 (Mar 27 2019 18:52:34)
0110.476 (0) This backup set remains non-empty (f=0/d=1); will retain in history
0110.479 (0) Examining (for databases) backup set with group_id=0, nonce=ac30093bc1b0, datestamp=1553626370 (Mar 26 2019 18:52:50)
0110.482 (0) This backup set remains non-empty (f=0/d=1); will retain in history
0110.484 (0) Examining (for databases) backup set with group_id=0, nonce=ba8e9503b843, datestamp=1553539941 (Mar 25 2019 18:52:21)
0110.486 (0) 1553539941: db: this set includes a database (backup_2019-03-26-0252_Joyoung__ba8e9503b843-db.gz); db count is now 14
0110.487 (0) 1553539941: db: over retain limit (14); will delete this database
0110.489 (0) Delete file: backup_2019-03-26-0252_Joyoung__ba8e9503b843-db.gz, service=none
0110.491 (0) Deleting local copy (backup_2019-03-26-0252_Joyoung__ba8e9503b843-db.gz)
0110.496 (0) This backup set remains non-empty (f=1/d=0); will retain in history
0110.498 (0) Number of backup sets in history: 15; groups (files): 1
0110.500 (0) Examining (for files) backup set with nonce=5596c6a49ae2, datestamp=1554749558 (Apr 08 2019 18:52:38)
0110.501 (0) This backup set is the backup set just made, so will not be deleted.
0110.503 (0) This backup set is the backup set just made, so will not be deleted.
0110.504 (0) This backup set is the backup set just made, so will not be deleted.
0110.504 (0) This backup set is the backup set just made, so will not be deleted.
0110.504 (0) This backup set remains non-empty (f=1/d=1); will retain in history
0110.506 (0) Examining (for files) backup set with nonce=86b13abcacd9, datestamp=1554663174 (Apr 07 2019 18:52:54)
0110.508 (0) This backup set remains non-empty (f=0/d=1); will retain in history
0110.510 (0) Examining (for files) backup set with nonce=e4d7ef025a6a, datestamp=1554576742 (Apr 06 2019 18:52:22)
0110.515 (0) This backup set remains non-empty (f=0/d=1); will retain in history
0110.517 (0) Examining (for files) backup set with nonce=2185ba4777d6, datestamp=1554490346 (Apr 05 2019 18:52:26)
0110.519 (0) This backup set remains non-empty (f=0/d=1); will retain in history
0110.520 (0) Examining (for files) backup set with nonce=59a8c6159a35, datestamp=1554403953 (Apr 04 2019 18:52:33)
0110.522 (0) This backup set remains non-empty (f=0/d=1); will retain in history
0110.524 (0) Examining (for files) backup set with nonce=c7a047e7ea03, datestamp=1554317545 (Apr 03 2019 18:52:25)
0110.526 (0) This backup set remains non-empty (f=0/d=1); will retain in history
0110.527 (0) Examining (for files) backup set with nonce=a5875dfc8981, datestamp=1554231169 (Apr 02 2019 18:52:49)
0110.529 (0) This backup set remains non-empty (f=0/d=1); will retain in history
0110.531 (0) Examining (for files) backup set with nonce=ab60807fb35f, datestamp=1554144818 (Apr 01 2019 18:53:38)
0110.532 (0) This backup set remains non-empty (f=1/d=1); will retain in history
0110.534 (0) Examining (for files) backup set with nonce=e817c8a43cef, datestamp=1554058345 (Mar 31 2019 18:52:25)
0110.536 (0) This backup set remains non-empty (f=0/d=1); will retain in history
0110.537 (0) Examining (for files) backup set with nonce=ff9092df28df, datestamp=1553971943 (Mar 30 2019 18:52:23)
0110.539 (0) This backup set remains non-empty (f=0/d=1); will retain in history
0110.541 (0) Examining (for files) backup set with nonce=1843606c22e6, datestamp=1553885571 (Mar 29 2019 18:52:51)
0110.543 (0) This backup set remains non-empty (f=0/d=1); will retain in history
0110.544 (0) Examining (for files) backup set with nonce=2f96141746c2, datestamp=1553799163 (Mar 28 2019 18:52:43)
0110.546 (0) This backup set remains non-empty (f=0/d=1); will retain in history
0110.548 (0) Examining (for files) backup set with nonce=f767c126e03f, datestamp=1553712754 (Mar 27 2019 18:52:34)
0110.549 (0) This backup set remains non-empty (f=0/d=1); will retain in history
0110.551 (0) Examining (for files) backup set with nonce=ac30093bc1b0, datestamp=1553626370 (Mar 26 2019 18:52:50)
0110.552 (0) This backup set remains non-empty (f=0/d=1); will retain in history
0110.554 (0) Examining (for files) backup set with nonce=ba8e9503b843, datestamp=1553539941 (Mar 25 2019 18:52:21)
0110.556 (0) plugins: over retain limit (2); will delete this file entity
0110.557 (0) themes: over retain limit (2); will delete this file entity
0110.559 (0) uploads: over retain limit (2); will delete this file entity
0110.561 (0) others: over retain limit (2); will delete this file entity
0110.563 (0) Delete file: backup_2019-03-26-0252_Joyoung__ba8e9503b843-plugins.zip, service=none
0110.564 (0) Deleting local copy (backup_2019-03-26-0252_Joyoung__ba8e9503b843-plugins.zip)
0110.568 (0) Delete file: backup_2019-03-26-0252_Joyoung__ba8e9503b843-themes.zip, service=none
0110.570 (0) Deleting local copy (backup_2019-03-26-0252_Joyoung__ba8e9503b843-themes.zip)
0110.571 (0) Delete file: backup_2019-03-26-0252_Joyoung__ba8e9503b843-uploads.zip, service=none
0110.573 (0) Deleting local copy (backup_2019-03-26-0252_Joyoung__ba8e9503b843-uploads.zip)
0110.580 (0) Delete file: backup_2019-03-26-0252_Joyoung__ba8e9503b843-uploads2.zip, service=none
0110.583 (0) Deleting local copy (backup_2019-03-26-0252_Joyoung__ba8e9503b843-uploads2.zip)
0110.595 (0) Delete file: backup_2019-03-26-0252_Joyoung__ba8e9503b843-uploads3.zip, service=none
0110.597 (0) Deleting local copy (backup_2019-03-26-0252_Joyoung__ba8e9503b843-uploads3.zip)
0110.600 (0) Delete file: backup_2019-03-26-0252_Joyoung__ba8e9503b843-others.zip, service=none
0110.602 (0) Deleting local copy (backup_2019-03-26-0252_Joyoung__ba8e9503b843-others.zip)
0110.606 (0) This backup set is now empty; will remove from history
0110.609 (0) Deleting log file (log.ba8e9503b843.txt)
0110.612 (0) Retain: saving new backup history (sets now: 14) and finishing retain operation
0110.621 (0) Resume backup (5596c6a49ae2, 0): finish run
0110.626 (0) Decremented the semaphore (fd) by 1
0110.629 (0) Semaphore (fd) unlocked
0110.630 (0) There were no errors in the uploads, so the 'resume' event (1) is being unscheduled
0110.638 (0) The backup apparently succeeded and is now complete
0110.640 (0) Fetching RSS news feed
0110.808 (0) Fetched RSS news feed; result is a: SimplePie
0110.814 (0) Sending email ('Files and database (完整備份)') report (attachments: 0, size: 0 KB) to: globa...
0114.688 (0) 備份工作已完成
