"#","Date Submitted","名字","Email","留言"
"323","27/02/2019","Doris Wong","Doriswon@gmail.com","Hi
I purchased a Joyoung Soymilk machine,  model DJ13C-Q3.
I would like to have a copy of the instruction manual. Could you kindly email me a softcopy?
Thank you

Regards 
Doris"
